<?xml version="1.0" encoding="UTF-8" standalone="no"?>
<!-- Generator: Adobe Illustrator 15.1.0, SVG Export Plug-In . SVG Version: 6.00 Build 0)  -->

<svg
   xmlns:dc="http://purl.org/dc/elements/1.1/"
   xmlns:cc="http://creativecommons.org/ns#"
   xmlns:rdf="http://www.w3.org/1999/02/22-rdf-syntax-ns#"
   xmlns:svg="http://www.w3.org/2000/svg"
   xmlns="http://www.w3.org/2000/svg"
   xmlns:xlink="http://www.w3.org/1999/xlink"
   xmlns:sodipodi="http://sodipodi.sourceforge.net/DTD/sodipodi-0.dtd"
   xmlns:inkscape="http://www.inkscape.org/namespaces/inkscape"
   version="1.1"
   id="Capa_1"
   x="0px"
   y="0px"
   width="634.96539"
   height="898.01599"
   viewBox="0 0 595.28 841.89"
   enable-background="new 0 0 595.28 841.89"
   xml:space="preserve"
   inkscape:version="0.48.4 r9939"
   sodipodi:docname="caratula_Redes_Unidad_1.svg"><metadata
     id="metadata462"><rdf:RDF><cc:Work
         rdf:about=""><dc:format>image/svg+xml</dc:format><dc:type
           rdf:resource="http://purl.org/dc/dcmitype/StillImage" /><dc:title></dc:title></cc:Work></rdf:RDF></metadata><defs
     id="defs460"><clipPath
       id="SVGID_2_-3"><use
         xlink:href="#SVGID_1_"
         overflow="visible"
         id="use9-8"
         style="overflow:visible"
         x="0"
         y="0"
         width="100%"
         height="100%" /></clipPath><defs
       id="defs182"><rect
         height="841.89001"
         width="595.28003"
         id="SVGID_24_"
         x="0"
         y="0" /></defs><clipPath
       id="SVGID_25_"><use
         id="use186"
         overflow="visible"
         xlink:href="#SVGID_24_"
         style="overflow:visible"
         x="0"
         y="0"
         width="100%"
         height="100%" /></clipPath></defs><sodipodi:namedview
     pagecolor="#ffffff"
     bordercolor="#666666"
     borderopacity="1"
     objecttolerance="10"
     gridtolerance="10"
     guidetolerance="10"
     inkscape:pageopacity="0"
     inkscape:pageshadow="2"
     inkscape:window-width="1301"
     inkscape:window-height="744"
     id="namedview458"
     showgrid="false"
     inkscape:zoom="0.66479885"
     inkscape:cx="317.4827"
     inkscape:cy="509.17657"
     inkscape:window-x="65"
     inkscape:window-y="24"
     inkscape:window-maximized="1"
     inkscape:current-layer="g3"
     inkscape:snap-center="true" /><g
     id="g3"><defs
       id="defs5"><rect
         id="SVGID_1_"
         width="595.28003"
         height="841.89001"
         x="0"
         y="0" /></defs><clipPath
       id="SVGID_2_"><use
         xlink:href="#SVGID_1_"
         overflow="visible"
         id="use9"
         style="overflow:visible"
         x="0"
         y="0"
         width="100%"
         height="100%" /></clipPath><rect
       x="0.28999999"
       y="0.182"
       clip-path="url(#SVGID_2_)"
       width="594.99103"
       height="841.70801"
       id="rect11"
       style="fill:#f6f6f6" /><rect
       y="121.308"
       clip-path="url(#SVGID_2_)"
       width="595.28101"
       height="599.63599"
       id="rect13"
       x="0"
       style="fill:#3e8a70" /><polygon
       clip-path="url(#SVGID_2_)"
       points="0.638,368.984 595.281,121.992 595.281,121.729 0.638,121.729 "
       id="polygon15"
       style="fill:#3e8a70" /><g
       clip-path="url(#SVGID_2_)"
       id="g126"><text
         transform="matrix(1,0,0,1.0035,117.6118,308.4624)"
         id="text128"
         style="line-height:0%"><tspan
           x="0"
           y="0"
           font-size="35.8736"
           id="tspan130"
           style="font-size:34.93890884px;font-family:'Liberation Sans';fill:#ffffff;-inkscape-font-specification:'Liberation Sans';font-weight:normal;font-style:normal;font-stretch:normal;font-variant:normal">en Software Libre</tspan></text>
</g><g
       clip-path="url(#SVGID_2_)"
       id="g136"><defs
         id="defs138"><rect
           id="SVGID_22_"
           width="595.28003"
           height="841.89001"
           x="0"
           y="0" /></defs><clipPath
         id="SVGID_23_"><use
           xlink:href="#SVGID_22_"
           overflow="visible"
           id="use142"
           style="overflow:visible"
           x="0"
           y="0"
           width="100%"
           height="100%" /></clipPath><path
         clip-path="url(#SVGID_23_)"
         d="m 87.091,209.91 c 1.166,-1.072 2.977,-1 4.047,0.166 1.072,1.164 0.996,2.977 -0.168,4.046 -1.162,1.071 -2.975,0.997 -4.046,-0.167 -1.071,-1.165 -0.995,-2.976 0.167,-4.045"
         id="path144"
         inkscape:connector-curvature="0"
         style="fill:#f6f6f6" /><path
         clip-path="url(#SVGID_23_)"
         d="m 75.677,197.503 c 1.165,-1.07 2.976,-0.997 4.047,0.168 1.07,1.164 0.997,2.977 -0.167,4.047 -1.163,1.071 -2.978,0.994 -4.048,-0.169 -1.071,-1.165 -0.994,-2.976 0.168,-4.046"
         id="path146"
         inkscape:connector-curvature="0"
         style="fill:#f6f6f6" /><path
         clip-path="url(#SVGID_23_)"
         d="m 69.969,191.3 c 1.163,-1.071 2.977,-0.996 4.048,0.169 1.072,1.164 0.995,2.976 -0.168,4.048 -1.164,1.068 -2.975,0.994 -4.047,-0.17 -1.071,-1.163 -0.996,-2.976 0.167,-4.047"
         id="path148"
         inkscape:connector-curvature="0"
         style="fill:#f6f6f6" /><path
         clip-path="url(#SVGID_23_)"
         d="m 64.263,185.097 c 1.163,-1.071 2.976,-0.995 4.047,0.171 1.07,1.163 0.996,2.974 -0.168,4.047 -1.162,1.067 -2.977,0.992 -4.047,-0.169 -1.071,-1.164 -0.996,-2.979 0.168,-4.049"
         id="path150"
         inkscape:connector-curvature="0"
         style="fill:#f6f6f6" /><path
         clip-path="url(#SVGID_23_)"
         d="m 92.8,216.111 c 1.164,-1.072 2.977,-0.994 4.045,0.166 1.072,1.164 0.998,2.979 -0.166,4.049 -1.162,1.071 -2.977,0.994 -4.049,-0.171 -1.068,-1.16 -0.994,-2.974 0.17,-4.044"
         id="path152"
         inkscape:connector-curvature="0"
         style="fill:#f6f6f6" /><path
         clip-path="url(#SVGID_23_)"
         d="m 81.027,215.488 c 1.165,-1.07 2.976,-0.996 4.046,0.17 1.072,1.164 0.996,2.975 -0.168,4.045 -1.164,1.072 -2.975,0.996 -4.047,-0.167 -1.07,-1.163 -0.996,-2.976 0.169,-4.048"
         id="path154"
         inkscape:connector-curvature="0"
         style="fill:#f6f6f6" /><path
         clip-path="url(#SVGID_23_)"
         d="m 92.92,204.544 c 1.164,-1.069 2.976,-0.996 4.047,0.17 1.071,1.162 0.995,2.974 -0.169,4.046 -1.164,1.069 -2.976,0.997 -4.048,-0.168 -1.069,-1.164 -0.994,-2.975 0.17,-4.048"
         id="path156"
         inkscape:connector-curvature="0"
         style="fill:#f6f6f6" /><path
         clip-path="url(#SVGID_23_)"
         d="m 81.384,203.705 c 1.164,-1.071 2.977,-0.994 4.047,0.169 1.072,1.165 0.997,2.976 -0.168,4.046 -1.162,1.07 -2.975,0.998 -4.045,-0.168 -1.07,-1.161 -0.996,-2.978 0.166,-4.047"
         id="path158"
         inkscape:connector-curvature="0"
         style="fill:#f6f6f6" /><path
         clip-path="url(#SVGID_23_)"
         d="m 69.53,214.613 c 1.164,-1.07 2.977,-0.993 4.047,0.17 1.071,1.164 0.996,2.975 -0.169,4.047 -1.165,1.07 -2.976,0.996 -4.046,-0.168 -1.07,-1.164 -0.997,-2.977 0.168,-4.049"
         id="path160"
         inkscape:connector-curvature="0"
         style="fill:#f6f6f6" /><path
         clip-path="url(#SVGID_23_)"
         d="m 75.456,209.16 c 1.165,-1.072 2.979,-0.996 4.049,0.168 1.071,1.164 0.994,2.976 -0.169,4.048 -1.165,1.07 -2.976,0.994 -4.047,-0.169 -1.07,-1.165 -0.997,-2.978 0.167,-4.047"
         id="path162"
         inkscape:connector-curvature="0"
         style="fill:#f6f6f6" /><path
         clip-path="url(#SVGID_23_)"
         d="m 93.239,192.794 c 1.166,-1.072 2.979,-0.995 4.049,0.17 1.07,1.164 0.994,2.976 -0.17,4.046 -1.164,1.071 -2.975,0.997 -4.047,-0.167 -1.068,-1.162 -0.996,-2.976 0.168,-4.049"
         id="path164"
         inkscape:connector-curvature="0"
         style="fill:#f6f6f6" /><path
         clip-path="url(#SVGID_23_)"
         d="m 87.312,198.25 c 1.164,-1.072 2.978,-0.994 4.048,0.168 1.071,1.166 0.994,2.978 -0.169,4.049 -1.165,1.069 -2.976,0.996 -4.046,-0.168 -1.07,-1.164 -0.997,-2.977 0.167,-4.049"
         id="path166"
         inkscape:connector-curvature="0"
         style="fill:#f6f6f6" /></g><g
       clip-path="url(#SVGID_2_)"
       id="g168"><text
         transform="matrix(1.0035,0,0,1,117.6094,264.5806)"
         id="text170"
         style="line-height:0%"><tspan
           x="0"
           y="0"
           font-size="34"
           letter-spacing="-2.989"
           id="tspan172"
           style="font-size:34.93890884px;font-family:'Liberation Sans';letter-spacing:-2.98900008;fill:#ffffff;-inkscape-font-specification:'Liberation Sans';font-weight:normal;font-style:normal;font-stretch:normal;font-variant:normal">T</tspan><tspan
           x="13.6"
           y="0"
           font-size="34"
           id="tspan174"
           style="font-size:34.93890884px;font-family:'Liberation Sans';fill:#ffffff;-inkscape-font-specification:'Liberation Sans';font-weight:normal;font-style:normal;font-stretch:normal;font-variant:normal">ecnicatura Universitaria</tspan></text>
</g><line
       style="fill:none;stroke:#ffffff;stroke-miterlimit:10"
       id="line188"
       y2="475.08801"
       x2="512.12701"
       y1="475.08801"
       x1="81.126999"
       stroke-miterlimit="10"
       clip-path="url(#SVGID_25_)" /><path
       style="fill:#ededed"
       inkscape:connector-curvature="0"
       id="path354"
       d="m 326.5,391.875 h -18.664 c -1.865,0 -3.382,1.518 -3.382,3.385 v 42.905 c 0,1.864 1.517,2.62 3.382,2.62 h 32.571 c 1.864,0 3.382,-0.756 3.382,-2.62 v -28.332 c 0,-3.333 -15.419,-17.958 -17.289,-17.958"
       clip-path="url(#SVGID_25_)" /><path
       style="fill:#ededed"
       inkscape:connector-curvature="0"
       id="path356"
       d="m 197.178,392.001 c -14.244,0 -25.792,11.547 -25.792,25.792 0,14.244 11.548,25.792 25.792,25.792 14.246,0 25.792,-11.548 25.792,-25.792 0,-14.245 -11.546,-25.792 -25.792,-25.792 m 0,47.251 c -11.851,0 -21.458,-9.608 -21.458,-21.459 0,-11.852 9.607,-21.458 21.458,-21.458 11.852,0 21.459,9.606 21.459,21.458 0,11.851 -9.607,21.459 -21.459,21.459"
       clip-path="url(#SVGID_25_)" /><path
       style="fill:#ededed"
       inkscape:connector-curvature="0"
       id="path358"
       d="m 197.178,404.666 c -4.653,0 -8.738,2.424 -11.07,6.076 h 2.733 c 2.004,-2.367 4.995,-3.87 8.337,-3.87 6.032,0 10.923,4.889 10.923,10.921 0,6.032 -4.891,10.922 -10.923,10.922 -4.173,0 -7.798,-2.341 -9.637,-5.783 h -2.445 c 2.001,4.696 6.656,7.988 12.082,7.988 7.25,0 13.128,-5.877 13.128,-13.127 0,-7.25 -5.878,-13.127 -13.128,-13.127"
       clip-path="url(#SVGID_25_)" /><path
       style="fill:none;stroke:#ededed;stroke-width:4"
       inkscape:connector-curvature="0"
       id="path360"
       d="m 197.178,404.666 c -4.653,0 -8.738,2.424 -11.07,6.076 h 2.733 c 2.004,-2.367 4.995,-3.87 8.337,-3.87 6.032,0 10.923,4.889 10.923,10.921 0,6.032 -4.891,10.922 -10.923,10.922 -4.173,0 -7.798,-2.341 -9.637,-5.783 h -2.445 c 2.001,4.696 6.656,7.988 12.082,7.988 7.25,0 13.128,-5.877 13.128,-13.127 0,-7.25 -5.878,-13.127 -13.128,-13.127 z"
       clip-path="url(#SVGID_25_)" /><path
       style="fill:#f6f6f6"
       inkscape:connector-curvature="0"
       id="path362"
       d="m 266.537,401.996 c -1.146,0 -2.188,0.453 -2.956,1.188 v -11.296 c -14.555,0.185 -26.319,11.948 -26.502,26.504 h 10.477 c -0.286,-0.615 -0.446,-1.301 -0.446,-2.024 0,-2.659 2.155,-4.815 4.814,-4.815 2.658,0 4.814,2.156 4.814,4.815 0,0.723 -0.161,1.409 -0.449,2.024 h 7.292 v -9.029 c 0.768,0.736 1.81,1.188 2.956,1.188 2.363,0 4.277,-1.916 4.277,-4.277 -0.001,-2.362 -1.915,-4.278 -4.277,-4.278"
       clip-path="url(#SVGID_25_)" /><path
       style="fill:none;stroke:#3e8a70;stroke-width:2;stroke-miterlimit:10"
       inkscape:connector-curvature="0"
       id="path364"
       d="m 266.537,401.996 c -1.146,0 -2.188,0.453 -2.956,1.188 v -11.296 c -14.555,0.185 -26.319,11.948 -26.502,26.504 h 10.477 c -0.286,-0.615 -0.446,-1.301 -0.446,-2.024 0,-2.659 2.155,-4.815 4.814,-4.815 2.658,0 4.814,2.156 4.814,4.815 0,0.723 -0.161,1.409 -0.449,2.024 h 7.292 v -9.029 c 0.768,0.736 1.81,1.188 2.956,1.188 2.363,0 4.277,-1.916 4.277,-4.277 -0.001,-2.362 -1.915,-4.278 -4.277,-4.278 z"
       stroke-miterlimit="10"
       clip-path="url(#SVGID_25_)" /><path
       style="fill:#f6f6f6"
       inkscape:connector-curvature="0"
       id="path366"
       d="m 290.782,418.392 c -0.186,-14.604 -12.022,-26.397 -26.644,-26.508 v 10.215 c 0.706,-0.406 1.524,-0.641 2.399,-0.641 2.659,0 4.813,2.156 4.813,4.816 0,2.658 -2.154,4.813 -4.813,4.813 -0.875,0 -1.693,-0.235 -2.399,-0.641 v 7.946 h 9.15 c -0.733,0.767 -1.183,1.807 -1.183,2.952 0,2.36 1.915,4.277 4.277,4.277 2.363,0 4.277,-1.917 4.277,-4.277 0,-1.145 -0.451,-2.185 -1.184,-2.952 z"
       clip-path="url(#SVGID_25_)" /><path
       style="fill:none;stroke:#3e8a70;stroke-width:2;stroke-miterlimit:10"
       inkscape:connector-curvature="0"
       id="path368"
       d="m 290.782,418.392 c -0.186,-14.604 -12.022,-26.397 -26.644,-26.508 v 10.215 c 0.706,-0.406 1.524,-0.641 2.399,-0.641 2.659,0 4.813,2.156 4.813,4.816 0,2.658 -2.154,4.813 -4.813,4.813 -0.875,0 -1.693,-0.235 -2.399,-0.641 v 7.946 h 9.15 c -0.733,0.767 -1.183,1.807 -1.183,2.952 0,2.36 1.915,4.277 4.277,4.277 2.363,0 4.277,-1.917 4.277,-4.277 0,-1.145 -0.451,-2.185 -1.184,-2.952 z"
       stroke-miterlimit="10"
       clip-path="url(#SVGID_25_)" /><path
       style="fill:#f6f6f6"
       inkscape:connector-curvature="0"
       id="path370"
       d="m 261.213,426.76 c 0.86,0 1.668,0.226 2.368,0.621 v -8.432 h -8.248 c 0.545,-0.718 0.868,-1.612 0.868,-2.582 0,-2.363 -1.916,-4.277 -4.278,-4.277 -2.362,0 -4.277,1.914 -4.277,4.277 0,0.97 0.324,1.864 0.868,2.582 h -11.438 c 0.114,14.62 11.903,26.455 26.505,26.643 v -9.83 c -0.7,0.396 -1.508,0.625 -2.368,0.625 -2.66,0 -4.814,-2.156 -4.814,-4.816 0,-2.657 2.154,-4.811 4.814,-4.811"
       clip-path="url(#SVGID_25_)" /><path
       style="fill:none;stroke:#3e8a70;stroke-width:2;stroke-miterlimit:10"
       inkscape:connector-curvature="0"
       id="path372"
       d="m 261.213,426.76 c 0.86,0 1.668,0.226 2.368,0.621 v -8.432 h -8.248 c 0.545,-0.718 0.868,-1.612 0.868,-2.582 0,-2.363 -1.916,-4.277 -4.278,-4.277 -2.362,0 -4.277,1.914 -4.277,4.277 0,0.97 0.324,1.864 0.868,2.582 h -11.438 c 0.114,14.62 11.903,26.455 26.505,26.643 v -9.83 c -0.7,0.396 -1.508,0.625 -2.368,0.625 -2.66,0 -4.814,-2.156 -4.814,-4.816 0,-2.657 2.154,-4.811 4.814,-4.811 z"
       stroke-miterlimit="10"
       clip-path="url(#SVGID_25_)" /><path
       style="fill:#f6f6f6"
       inkscape:connector-curvature="0"
       id="path374"
       d="m 280.556,418.949 c 0.407,0.705 0.639,1.523 0.639,2.395 0,2.658 -2.154,4.813 -4.813,4.813 -2.659,0 -4.815,-2.155 -4.815,-4.813 0,-0.872 0.233,-1.69 0.639,-2.395 h -8.068 v 9.504 c -0.765,-0.72 -1.793,-1.158 -2.925,-1.158 -2.363,0 -4.278,1.914 -4.278,4.275 0,2.363 1.915,4.278 4.278,4.278 1.132,0 2.16,-0.441 2.925,-1.157 v 10.9 c 14.667,-0.111 26.534,-11.977 26.646,-26.643 h -10.228 z"
       clip-path="url(#SVGID_25_)" /><path
       style="fill:none;stroke:#3e8a70;stroke-width:2;stroke-miterlimit:10"
       inkscape:connector-curvature="0"
       id="path376"
       d="m 280.556,418.949 c 0.407,0.705 0.639,1.523 0.639,2.395 0,2.658 -2.154,4.813 -4.813,4.813 -2.659,0 -4.815,-2.155 -4.815,-4.813 0,-0.872 0.233,-1.69 0.639,-2.395 h -8.068 v 9.504 c -0.765,-0.72 -1.793,-1.158 -2.925,-1.158 -2.363,0 -4.278,1.914 -4.278,4.275 0,2.363 1.915,4.278 4.278,4.278 1.132,0 2.16,-0.441 2.925,-1.157 v 10.9 c 14.667,-0.111 26.534,-11.977 26.646,-26.643 h -10.228 z"
       stroke-miterlimit="10"
       clip-path="url(#SVGID_25_)" /><path
       style="fill:#ededed"
       inkscape:connector-curvature="0"
       id="path378"
       d="m 343.789,405.217 v -10.721 c 0,-1.865 -1.517,-2.621 -3.382,-2.621 h -9.962 c 1.87,0 13.344,11.479 13.344,13.342"
       clip-path="url(#SVGID_25_)" /><path
       style="clip-rule:evenodd;fill:#ededed;fill-rule:evenodd"
       inkscape:connector-curvature="0"
       id="path380"
       d="m 147.304,394.451 c 0.798,0.533 1.49,0.275 2.19,-0.161 0.771,-0.481 1.535,-0.999 2.362,-1.356 1.295,-0.56 2.689,-0.565 4.077,-0.492 1.899,0.101 3.714,0.567 5.3,1.634 2.707,1.821 4.474,4.315 4.932,7.666 0.268,1.966 0.436,3.952 -0.11,5.871 -0.775,2.727 -2.181,5.09 -4.629,6.6 -0.813,0.502 -1.804,0.706 -2.715,1.044 -0.074,0.027 -0.154,0.036 -0.287,0.067 0.069,0.346 0.108,0.685 0.208,1.005 0.154,0.49 0.366,0.604 0.882,0.541 0.339,-0.041 0.561,0.174 0.555,0.537 -0.008,0.522 -0.387,1.056 -0.988,1.162 -0.687,0.122 -1.396,0.137 -2.096,0.147 -0.71,0.01 -1.401,-0.11 -2.009,-0.537 -0.129,-0.092 -0.295,-0.159 -0.451,-0.178 -0.965,-0.115 -1.747,-0.621 -2.512,-1.178 -0.313,-0.226 -0.655,-0.412 -1.008,-0.631 0.142,0.809 0.251,1.549 0.405,2.28 0.119,0.572 0.431,0.776 0.997,0.712 0.256,-0.029 0.512,-0.06 0.761,-0.121 0.731,-0.176 1.571,0.208 1.732,0.932 0.17,0.756 0.248,1.547 0.248,2.322 0,0.614 -0.278,1.174 -0.761,1.592 -0.607,0.524 -1.21,1.055 -1.892,1.649 0.239,0.239 0.473,0.563 0.783,0.769 1.053,0.692 0.733,1.766 -0.085,2.271 -0.241,0.148 -0.495,0.303 -0.763,0.375 -0.392,0.105 -0.466,0.305 -0.389,0.688 0.133,0.674 0.068,1.346 -0.167,1.992 -0.214,0.588 -0.408,0.715 -1.016,0.766 -0.591,0.051 -1.185,0.111 -1.768,0.221 -0.603,0.113 -1.078,1.096 -0.837,1.668 0.091,0.215 0.21,0.416 0.312,0.626 0.451,0.927 0.201,1.89 -0.644,2.47 -0.325,0.223 -0.652,0.443 -0.988,0.648 -0.343,0.209 -0.353,0.475 -0.193,0.809 0.522,1.092 1.366,1.527 2.656,1.271 -0.219,0.361 -0.395,0.652 -0.57,0.941 0.009,0.027 0.018,0.057 0.027,0.084 0.502,-0.283 1.004,-0.564 1.482,-0.834 -0.034,0.484 -0.653,1.131 -2.309,2.336 h 1.609 c -0.301,0.274 -0.707,0.442 -1.512,0.455 -0.531,0.008 -1.09,-0.068 -1.586,-0.25 -0.499,-0.181 -0.936,-0.539 -1.445,-0.848 0.085,0.895 0.836,1.02 1.441,1.376 -1.032,-0.091 -1.978,0.015 -3.439,-0.952 0.058,0.459 0.058,0.459 0.978,0.992 -0.508,0.137 -1.015,0.107 -1.505,-0.29 -0.64,-0.519 -1.231,-1.112 -1.781,-1.729 -0.183,-0.205 -0.178,-0.586 -0.26,-0.889 -0.756,0.221 -0.815,0.65 -0.173,1.879 -1.148,-0.574 -1.302,-1.498 -0.855,-2.262 0.233,-0.398 0.498,-0.779 0.686,-1.07 -0.451,-0.666 -0.856,-1.307 -1.306,-1.914 -0.215,-0.291 -0.515,-0.518 -0.855,-0.719 0.164,0.334 0.318,0.676 0.496,1.002 0.589,1.076 -0.167,1.818 -1.054,1.992 -0.475,0.094 -0.665,0.457 -0.432,0.906 0.125,0.242 0.281,0.469 0.433,0.717 -0.611,-0.17 -1.21,-1.079 -1.044,-1.639 0.065,-0.219 0.29,-0.408 0.479,-0.562 0.186,-0.152 0.442,-0.215 0.628,-0.365 0.371,-0.306 0.38,-0.625 0.001,-0.926 -0.511,-0.404 -1.067,-0.755 -1.587,-1.15 -0.291,-0.221 -0.574,-0.465 -0.812,-0.744 -0.528,-0.619 -0.5,-1.068 0.05,-1.666 0.139,-0.151 0.283,-0.299 0.401,-0.465 0.17,-0.242 0.122,-0.457 -0.16,-0.557 -0.198,-0.07 -0.414,-0.111 -0.623,-0.113 -0.465,-0.006 -0.586,-0.094 -0.584,-0.56 0.001,-0.323 -0.173,-0.435 -0.442,-0.483 -0.977,-0.178 -1.296,-0.515 -1.409,-1.492 -0.042,-0.359 0.017,-0.678 0.353,-0.9 0.104,-0.068 0.146,-0.232 0.217,-0.352 -0.123,-0.07 -0.24,-0.16 -0.371,-0.207 -0.098,-0.035 -0.214,-0.018 -0.323,-0.02 -0.354,-0.004 -0.539,-0.189 -0.608,-0.539 -0.158,-0.798 -0.163,-0.839 -0.943,-0.859 -0.445,-0.012 -0.507,-0.256 -0.545,-0.584 -0.061,-0.521 -0.104,-1.041 -0.172,-1.562 -0.039,-0.3 -0.089,-0.577 -0.496,-0.644 -0.132,-0.022 -0.287,-0.35 -0.305,-0.549 -0.061,-0.656 -0.039,-1.32 -0.098,-1.978 -0.048,-0.532 -0.166,-1.059 -0.258,-1.618 -0.085,0.032 -0.162,0.045 -0.222,0.084 -0.808,0.53 -1.691,0.854 -2.63,1.039 -0.108,0.022 -0.27,0.161 -0.275,0.25 -0.128,2.397 -0.216,4.782 0.411,7.147 0.677,2.555 2.035,4.664 3.825,6.521 0.616,0.639 1.273,1.236 1.874,1.891 -1.388,-0.377 -4.749,-4.279 -5.815,-6.578 -1.302,-2.812 -1.319,-5.785 -1.096,-8.807 -0.509,-0.006 -0.831,0.233 -1.054,0.59 -0.347,0.557 -0.812,0.664 -1.402,0.5 -0.516,-0.145 -0.999,-0.07 -1.483,0.203 -0.215,0.121 -0.555,0.146 -0.787,0.064 -0.309,-0.107 -0.306,-0.465 -0.264,-0.756 0.106,-0.738 0.385,-1.383 1.058,-1.768 0.625,-0.357 1.002,-0.828 1,-1.613 0,-0.291 0.193,-0.65 0.409,-0.859 0.638,-0.62 0.691,-1.374 0.591,-2.176 -0.012,-0.096 -0.206,-0.22 -0.331,-0.242 -1.52,-0.271 -3.008,-0.663 -4.22,-1.685 -2.607,-2.197 -4.285,-4.932 -4.544,-8.452 -0.117,-1.583 -0.234,-3.173 0.134,-4.732 0.823,-3.495 2.754,-6.096 5.988,-7.678 2.444,-1.195 5.004,-1.513 7.666,-1.342 1.337,0.086 2.635,0.291 3.791,1.047 0.308,0.201 0.63,0.379 0.933,0.586 0.943,0.646 1.916,0.969 2.986,0.287 0.148,0.918 -0.348,1.767 -1.254,2.088 -1.338,0.476 -2.735,0.524 -4.086,0.188 -2.154,-0.536 -4.131,-0.147 -6.1,0.777 -2.274,1.068 -4.148,4.542 -3.757,7.288 0.171,1.203 0.634,2.179 1.563,2.923 0.815,0.652 1.623,0.656 2.52,0.119 0.921,-0.552 1.584,-1.371 2.289,-2.149 1.231,-1.358 2.467,-2.712 3.668,-4.096 1.685,-1.943 3.801,-2.723 6.311,-2.581 1.286,0.073 2.429,0.496 3.473,1.234 0.411,0.291 0.792,0.626 1.203,0.916 0.616,0.432 0.459,0.507 1.14,-0.072 0.353,-0.3 0.7,-0.609 1.071,-0.884 2.116,-1.571 4.315,-1.443 6.537,-0.274 1.346,0.709 2.28,1.892 3.2,3.068 0.784,1.004 1.512,2.052 2.284,3.065 0.577,0.756 1.232,1.424 2.124,1.81 0.683,0.296 1.277,0.153 1.803,-0.322 0.651,-0.587 0.997,-1.345 1.163,-2.213 0.528,-2.758 -0.094,-5.174 -2.167,-7.062 -1.489,-1.356 -3.253,-1.962 -5.294,-1.503 -1.314,0.296 -2.655,0.405 -3.993,0.175 -1.077,-0.182 -1.727,-0.961 -1.752,-2.086 m 0.282,38.859 c -0.713,-0.345 -1.321,-0.319 -1.918,0.089 -0.412,0.281 -0.811,0.236 -1.242,-0.049 -0.291,-0.193 -0.667,-0.256 -1.01,-0.363 -0.118,-0.037 -0.248,-0.029 -0.466,-0.054 0.143,-0.103 0.191,-0.153 0.25,-0.177 0.163,-0.066 0.325,-0.152 0.496,-0.178 1.63,-0.254 3.256,-0.531 4.893,-0.729 0.718,-0.086 1.456,0.02 2.184,-0.008 0.193,-0.008 0.484,-0.133 0.552,-0.285 0.291,-0.656 0.351,-1.355 0.128,-2.053 -0.035,-0.107 -0.172,-0.25 -0.272,-0.26 -0.753,-0.074 -1.515,-0.205 -2.263,-0.15 -0.937,0.066 -1.86,0.314 -2.794,0.447 -2.106,0.297 -3.954,-0.115 -5.147,-2.108 -0.514,-0.856 -0.954,-1.757 -1.434,-2.636 -0.35,-0.641 -0.605,-1.379 -1.46,-1.541 0.521,-0.129 0.942,-0.01 1.235,0.445 0.298,0.461 0.587,0.928 0.909,1.438 0.242,-0.704 0.277,-1.461 0.995,-1.812 -0.503,0.613 -0.613,1.369 -0.742,2.115 -0.015,0.084 0.017,0.195 0.066,0.268 0.499,0.736 0.977,1.49 1.52,2.191 0.366,0.471 0.888,0.734 1.481,0.873 1.2,0.283 2.394,0.273 3.571,-0.062 1.448,-0.414 2.903,-0.619 4.411,-0.465 0.409,0.043 0.848,-0.107 1.26,-0.219 0.297,-0.08 0.533,-0.283 0.545,-0.641 0.013,-0.346 -0.196,-0.536 -0.457,-0.723 -0.282,-0.201 -0.538,-0.453 -0.765,-0.717 -0.137,-0.16 -0.229,-0.242 -0.462,-0.203 -0.599,0.104 -1.206,0.156 -1.811,0.229 -0.005,-0.033 -0.01,-0.068 -0.015,-0.102 0.097,-0.035 0.193,-0.076 0.292,-0.105 1.06,-0.32 2.031,-0.818 2.936,-1.465 1.309,-0.938 1.858,-2.178 1.506,-3.791 -0.173,-0.79 -0.733,-1.129 -1.48,-0.848 -0.754,0.285 -1.409,0.141 -1.919,-0.446 -0.424,-0.489 -0.781,-1.046 -1.114,-1.607 -0.321,-0.539 -0.524,-1.155 -0.864,-1.679 -0.692,-1.069 -1.451,-2.094 -2.163,-3.15 -0.163,-0.242 -0.3,-0.526 -0.362,-0.811 -0.239,-1.11 -0.259,-2.216 0.23,-3.275 0.24,-0.523 0.625,-0.888 1.222,-0.856 0.189,0.011 0.447,0.177 0.525,0.344 0.055,0.121 -0.109,0.377 -0.22,0.543 -0.176,0.261 -0.39,0.496 -0.63,0.794 1.112,0.091 1.208,0.135 1.343,0.54 -0.182,-0.076 -0.373,-0.19 -0.578,-0.235 -0.465,-0.101 -0.703,0.065 -0.856,0.519 -0.046,0.137 -0.114,0.299 -0.222,0.377 -0.385,0.272 -0.331,0.642 -0.302,1.09 0.771,-0.354 1.528,-0.514 2.325,-0.443 0.078,0.007 0.173,-0.1 0.248,-0.167 0.736,-0.656 0.552,-2.403 -0.07,-2.873 -0.753,-0.569 -1.079,-1.304 -1.155,-2.207 -0.004,-0.041 -0.022,-0.08 -0.028,-0.121 -0.044,-0.306 -0.201,-0.436 -0.52,-0.438 -0.46,-0.002 -0.92,-0.056 -1.415,-0.09 0.958,-1.043 0.957,-2.047 -0.017,-3 -0.436,-0.427 -0.945,-0.777 -1.426,-1.155 -0.152,-0.12 -0.324,-0.216 -0.512,-0.34 1.25,-0.67 2.483,-0.837 3.758,-0.288 1.354,0.584 2.552,1.398 3.488,2.566 0.763,0.95 1.461,1.957 2.26,2.872 0.607,0.695 1.268,1.378 2.018,1.894 0.741,0.512 1.633,0.798 2.211,1.736 0.346,-1.044 1.047,-1.119 1.908,-0.84 -0.029,-0.936 0.209,-1.599 1.195,-1.634 0.021,0 0.04,-0.033 0.073,-0.062 -0.024,-0.278 -0.004,-0.578 -0.082,-0.849 -0.193,-0.665 0.014,-1.111 0.619,-1.39 0.018,-0.008 0.023,-0.047 0.043,-0.092 -0.046,-0.084 -0.085,-0.189 -0.15,-0.273 -0.4,-0.516 -0.432,-1.031 -0.023,-1.557 0.226,-0.292 0.186,-0.564 -0.022,-0.858 -0.38,-0.535 -0.673,-1.101 -0.357,-1.783 0.181,-0.392 0.026,-0.648 -0.298,-0.857 -0.35,-0.226 -0.542,-0.516 -0.54,-0.98 0.004,-0.828 -0.026,-0.831 -0.792,-1.117 -0.278,-0.103 -0.534,-0.185 -0.661,-0.528 -0.333,-0.898 -0.351,-0.898 -1.3,-0.888 -0.271,0.003 -0.519,-0.005 -0.653,-0.288 -0.268,-0.572 -0.71,-0.675 -1.296,-0.619 -0.498,0.046 -1.044,0.082 -1.471,-0.294 -0.226,-0.199 -0.419,-0.207 -0.626,-0.005 -0.353,0.344 -0.712,0.379 -1.107,0.065 -0.318,-0.253 -0.646,-0.23 -1.013,-0.059 -0.454,0.213 -0.938,0.361 -1.506,0.574 0.717,-0.697 1.326,-1.342 2.309,-1.347 0.331,-0.001 0.672,-0.093 0.991,-0.2 0.356,-0.12 0.69,-0.11 1.019,0.046 0.604,0.288 1.21,0.335 1.832,0.072 0.259,-0.11 0.489,-0.06 0.718,0.108 0.527,0.388 1.086,0.667 1.77,0.475 0.335,-0.095 0.538,0.076 0.647,0.382 0.203,0.577 0.575,0.905 1.202,0.844 0.4,-0.038 0.601,0.17 0.777,0.511 0.17,0.331 0.358,0.751 0.651,0.898 0.534,0.266 0.706,0.645 0.718,1.189 0.004,0.191 0.03,0.387 0.081,0.571 0.042,0.149 0.103,0.337 0.217,0.412 0.506,0.336 0.59,0.766 0.361,1.302 -0.037,0.087 -0.033,0.191 -0.064,0.282 -0.085,0.258 -0.04,0.472 0.149,0.678 0.22,0.241 0.41,0.508 0.625,0.778 -0.267,0.398 -0.522,0.779 -0.783,1.167 0.295,0.258 0.557,0.486 0.836,0.729 -0.379,0.343 -0.72,0.651 -1.187,1.073 0.42,0.352 0.813,0.681 1.245,1.042 -0.5,0.167 -0.907,0.303 -1.363,0.456 0.294,0.425 0.562,0.813 0.85,1.23 -0.382,0.073 -0.711,0.137 -1.069,0.206 0.23,0.452 0.444,0.873 0.692,1.36 h -1.196 c 0.205,0.355 0.372,0.644 0.571,0.99 -0.473,-0.048 -0.881,-0.089 -1.324,-0.133 0.101,0.486 0.193,0.926 0.299,1.434 -0.365,-0.302 -0.68,-0.564 -1.015,-0.842 -0.122,0.587 -0.231,1.113 -0.36,1.736 -0.257,-0.451 -0.457,-0.803 -0.699,-1.227 -0.14,0.548 -0.258,1.015 -0.393,1.541 -0.291,-0.38 -0.543,-0.71 -0.795,-1.04 -0.027,0.007 -0.055,0.014 -0.082,0.02 v 1.485 c -0.316,-0.489 -0.567,-0.877 -0.817,-1.263 -0.022,0.228 -0.015,0.434 0.037,0.628 0.139,0.514 0.286,1.026 0.457,1.53 0.031,0.091 0.202,0.205 0.292,0.193 1.136,-0.165 2.222,-0.482 3.158,-1.198 1.838,-1.407 3.021,-3.307 3.779,-5.467 0.587,-1.671 0.533,-3.44 0.435,-5.197 -0.225,-4.03 -2.355,-6.837 -5.598,-8.852 -1.509,-0.938 -3.265,-1.095 -5.015,-1.157 -1.45,-0.052 -2.831,0.155 -4.105,0.894 -0.541,0.314 -1.056,0.672 -1.6,0.981 -0.51,0.291 -1.027,0.599 -1.717,0.429 0.395,0.712 0.98,1.042 1.665,1.034 1.078,-0.01 2.185,0.002 3.226,-0.237 3.26,-0.748 5.902,1.019 7.138,2.954 1.105,1.73 1.384,3.65 1.151,5.663 -0.098,0.843 -0.391,1.627 -0.867,2.334 -0.763,1.133 -2.287,1.489 -3.407,0.558 -0.932,-0.774 -1.704,-1.689 -2.431,-2.654 -0.8,-1.061 -1.6,-2.121 -2.431,-3.157 -1.397,-1.742 -3.158,-2.721 -5.428,-2.638 -1.331,0.049 -2.33,0.727 -3.299,1.609 0.15,0.049 0.239,0.08 0.33,0.107 1.203,0.351 2.201,1.039 3.064,1.943 0.588,0.616 0.895,1.764 -0.05,2.602 -0.337,0.298 -0.682,0.587 -1.022,0.882 -0.652,0.566 -0.65,0.799 0.056,1.283 0.297,0.202 0.369,0.462 0.306,0.783 -0.075,0.378 -0.272,0.654 -0.661,0.759 -0.45,0.123 -0.869,0.102 -1.272,-0.243 0.096,-0.022 0.149,-0.03 0.2,-0.047 0.249,-0.082 0.571,-0.077 0.615,-0.438 0.046,-0.381 -0.241,-0.54 -0.516,-0.653 -0.437,-0.18 -0.894,-0.31 -1.338,-0.473 -0.926,-0.339 -1.669,-0.859 -1.829,-1.948 -0.009,-0.064 -0.049,-0.124 -0.08,-0.198 -0.692,-0.022 -1.306,0.205 -1.904,0.511 -0.807,0.413 -1.654,0.622 -2.55,0.388 -0.647,-0.169 -1.281,-0.151 -1.927,-0.021 -1.201,0.243 -2.345,0.772 -3.6,0.757 -0.144,-0.002 -0.297,0.041 -0.433,0.096 -1.945,0.777 -3.67,1.842 -4.69,3.799 -0.361,0.692 -0.743,1.38 -1.031,2.104 -0.637,1.603 -1.362,3.186 -1.265,4.994 0.015,0.283 -0.234,0.589 -0.384,0.87 -0.183,0.346 -0.424,0.663 -0.577,1.021 -0.128,0.297 -0.136,0.648 -0.251,0.954 -0.077,0.205 -0.22,0.404 -0.383,0.548 -0.324,0.286 -0.686,0.528 -1.025,0.797 -0.327,0.262 -0.439,0.61 -0.354,1.049 0.117,-0.06 0.219,-0.131 0.332,-0.166 0.434,-0.135 0.918,-0.441 1.297,-0.344 0.615,0.161 0.999,-0.05 1.372,-0.429 0.481,-0.489 1.063,-0.741 1.715,-0.871 4.333,-0.871 6.842,-3.62 7.832,-7.92 0.087,-0.382 0.144,-0.771 0.214,-1.158 0.049,0.007 0.099,0.014 0.149,0.021 -0.097,0.884 -0.138,1.778 -0.302,2.648 -0.293,1.558 -0.239,3.04 0.61,4.424 0.071,0.115 0.111,0.248 0.202,0.454 -0.811,-0.799 -1.195,-1.741 -1.525,-2.756 -0.381,0.538 -0.683,1.032 -1.052,1.466 -0.37,0.436 -0.774,0.858 -1.224,1.202 -0.391,0.3 -0.545,0.628 -0.521,1.113 0.053,1.092 0.427,2.16 0.236,3.277 -0.023,0.137 0.196,0.393 0.36,0.471 0.323,0.152 0.438,0.387 0.442,0.715 0.006,0.387 -0.009,0.773 0.015,1.158 0.022,0.346 0.159,0.599 0.565,0.619 0.691,0.029 0.995,0.326 1.041,1.031 0.018,0.26 0.14,0.377 0.361,0.418 0.132,0.025 0.269,0.02 0.404,0.029 0.617,0.044 0.877,0.584 0.533,1.111 -0.074,0.115 -0.178,0.209 -0.258,0.32 -0.361,0.5 -0.281,1.037 0.252,1.33 0.325,0.18 0.697,0.323 1.061,0.369 1.5,0.178 2.225,1.566 1.481,2.896 -0.047,0.084 -0.132,0.168 -0.132,0.252 -0.001,0.221 -0.041,0.504 0.073,0.648 0.247,0.314 0.581,0.555 0.88,0.825 0.031,-0.028 0.064,-0.058 0.095,-0.087 -0.048,-0.297 -0.104,-0.594 -0.144,-0.893 -0.054,-0.402 0.07,-0.732 0.414,-0.961 0.476,-0.316 0.951,-0.633 1.403,-0.935 0,0.265 0.024,0.618 -0.006,0.966 -0.053,0.611 0.258,0.904 0.846,0.75 0.207,-0.055 0.406,-0.143 0.7,-0.248 -0.107,0.16 -0.151,0.229 -0.197,0.295 -0.53,0.748 -0.465,1.559 0.21,2.18 0.279,0.256 0.58,0.545 0.923,0.66 0.641,0.217 0.739,0.613 0.698,1.234 -0.059,0.889 0.368,1.51 1.121,1.822 -0.035,-0.074 -0.059,-0.135 -0.09,-0.191 -0.562,-1.035 -0.379,-1.709 0.636,-2.289 0.4,-0.229 0.822,-0.418 1.218,-0.654 0.543,-0.326 0.955,-0.777 1.091,-1.426 0.05,-0.24 0.037,-0.496 0.056,-0.808 0.305,0.625 0.295,0.815 -0.102,2.405 0.238,-0.193 0.438,-0.324 0.601,-0.494 0.165,-0.168 0.293,-0.375 0.473,-0.611 0.041,0.221 0.07,0.379 0.109,0.59 0.27,-0.23 0.503,-0.416 0.721,-0.619 0.541,-0.506 0.632,-1.072 0.222,-1.695 -0.347,-0.523 -0.711,-1.023 -0.381,-1.696 m -2.487,-28.055 c -0.223,-0.141 -0.34,-0.249 -0.476,-0.294 -0.669,-0.222 -0.686,-0.735 -0.646,-1.329 0.068,-1.007 -1.025,-1.965 -1.996,-1.755 -0.282,0.061 -0.431,10e-4 -0.62,-0.207 -1.493,-1.641 -3.245,-2.685 -5.542,-2.651 -1.964,0.028 -3.632,0.641 -4.955,2.142 -1.33,1.508 -2.656,3.022 -3.991,4.524 -0.698,0.786 -1.36,1.609 -2.284,2.153 -0.78,0.461 -1.608,0.67 -2.442,0.298 -1.392,-0.621 -2.183,-1.763 -2.418,-3.287 -0.333,-2.158 0.26,-4.083 1.423,-5.873 0.723,-1.113 1.664,-1.954 2.849,-2.506 2.039,-0.949 4.145,-1.167 6.338,-0.634 1.146,0.278 2.312,0.272 3.447,-0.113 0.49,-0.167 0.919,-0.435 1.159,-1.038 -1.02,0.394 -1.846,0.05 -2.669,-0.44 -0.721,-0.431 -1.46,-0.847 -2.23,-1.172 -1.015,-0.428 -2.115,-0.408 -3.197,-0.457 -2.235,-0.101 -4.405,0.136 -6.426,1.2 -3.855,2.031 -6.098,5.157 -6.227,9.662 -0.089,3.119 0.596,6.01 2.598,8.486 1.053,1.302 2.248,2.386 3.836,2.949 0.801,0.282 1.62,0.496 2.486,0.53 0.187,-0.835 0.367,-1.634 0.547,-2.431 -0.023,-0.01 -0.045,-0.019 -0.067,-0.028 -0.294,0.414 -0.587,0.827 -0.88,1.241 -0.025,-0.008 -0.05,-0.017 -0.075,-0.025 v -1.559 c -0.353,0.419 -0.652,0.776 -0.986,1.174 -0.154,-0.569 -0.286,-1.06 -0.439,-1.624 -0.285,0.461 -0.527,0.85 -0.804,1.297 -0.144,-0.648 -0.271,-1.216 -0.409,-1.835 -0.399,0.309 -0.751,0.582 -1.159,0.898 0.125,-0.548 0.23,-1.009 0.346,-1.519 -0.53,0.055 -0.995,0.104 -1.527,0.16 0.233,-0.368 0.438,-0.691 0.686,-1.08 h -1.376 c 0.267,-0.481 0.508,-0.917 0.775,-1.397 -0.43,-0.079 -0.802,-0.149 -1.215,-0.225 0.338,-0.453 0.638,-0.854 0.962,-1.287 -0.513,-0.161 -0.977,-0.306 -1.44,-0.451 0.407,-0.436 0.776,-0.832 1.16,-1.244 -0.398,-0.334 -0.79,-0.661 -1.204,-1.009 0.344,-0.277 0.648,-0.522 0.956,-0.77 -0.311,-0.42 -0.603,-0.813 -0.891,-1.201 0.041,-0.061 0.057,-0.102 0.087,-0.126 0.749,-0.617 1.025,-1.347 0.585,-2.29 -0.047,-0.1 0.06,-0.36 0.168,-0.433 0.494,-0.335 0.718,-0.788 0.716,-1.382 -0.001,-0.177 0.058,-0.354 0.068,-0.532 0.014,-0.248 0.117,-0.409 0.354,-0.49 0.488,-0.165 0.817,-0.51 1.036,-0.977 0.07,-0.149 0.141,-0.31 0.255,-0.42 0.134,-0.129 0.321,-0.3 0.476,-0.293 0.829,0.042 1.43,-0.243 1.73,-1.07 0.08,-0.221 0.239,-0.314 0.48,-0.258 0.815,0.189 1.545,-0.029 2.218,-0.501 0.238,-0.168 0.482,-0.206 0.762,-0.109 0.654,0.228 1.314,0.302 1.963,-0.017 0.519,-0.254 1.035,-0.198 1.574,-0.056 0.456,0.12 0.929,0.18 1.397,0.247 0.6,0.084 1.588,0.703 1.955,1.276 -0.496,-0.173 -0.967,-0.303 -1.409,-0.5 -0.507,-0.226 -0.982,-0.261 -1.44,0.08 -0.347,0.258 -0.671,0.23 -0.982,-0.046 -0.331,-0.292 -0.644,-0.337 -0.98,0 -0.089,0.089 -0.238,0.155 -0.363,0.162 -0.606,0.032 -1.215,0.03 -1.821,0.063 -0.155,0.009 -0.384,0.058 -0.444,0.166 -0.388,0.692 -0.97,0.891 -1.702,0.783 -0.052,-0.009 -0.109,0.007 -0.162,-0.001 -0.282,-0.046 -0.468,0.053 -0.534,0.35 -0.175,0.775 -0.691,1.165 -1.428,1.295 -0.31,0.055 -0.45,0.21 -0.456,0.55 -0.012,0.616 -0.015,1.256 -0.708,1.563 -0.389,0.173 -0.42,0.468 -0.287,0.842 0.168,0.48 0.315,0.97 -0.108,1.413 -0.581,0.61 -0.554,1.24 -0.039,1.876 0.163,0.201 0.133,0.389 -0.003,0.6 -0.175,0.27 -0.32,0.561 -0.485,0.855 0.133,0.092 0.224,0.179 0.333,0.225 0.46,0.197 0.594,0.511 0.471,1.014 -0.095,0.39 -0.084,0.807 -0.12,1.215 0.33,0.081 0.603,0.165 0.882,0.21 0.252,0.04 0.368,0.167 0.407,0.417 0.056,0.35 0.135,0.696 0.206,1.057 0.454,-0.045 0.916,-0.22 1.27,-0.091 0.35,0.128 0.591,0.564 0.926,0.913 0.655,-0.892 1.624,-1.28 2.489,-1.834 0.683,-0.436 1.342,-0.941 1.918,-1.514 0.839,-0.837 1.612,-1.748 2.38,-2.657 1.192,-1.408 2.545,-2.586 4.263,-3.282 1.828,-0.74 4.489,-0.884 6.333,1.264 0.218,0.254 0.486,0.464 0.73,0.693 0.133,-0.159 0.235,-0.282 0.303,-0.365 -0.021,0.607 -0.076,1.234 -0.058,1.858 0.031,1.098 0.409,1.995 1.522,2.39 0.242,0.086 0.491,0.153 0.729,0.25 0.299,0.123 0.612,0.234 0.878,0.413 0.229,0.154 0.477,0.364 0.576,0.609 0.088,0.218 -0.017,0.517 -0.037,0.798 0.237,-0.094 0.435,-0.254 0.479,-0.561 0.045,-0.316 -0.154,-0.468 -0.386,-0.613 -0.576,-0.364 -0.627,-0.983 -0.112,-1.434 0.256,-0.224 0.545,-0.409 0.811,-0.621 0.823,-0.654 0.966,-1.622 0.227,-2.361 -0.549,-0.549 -1.24,-0.958 -1.895,-1.386 -0.307,-0.201 -0.679,-0.3 -1.091,-0.474 0.047,0.109 0.05,0.125 0.059,0.133 0.029,0.027 0.059,0.056 0.093,0.076 0.99,0.564 1.5,1.364 1.236,2.559 -0.067,0.303 0.068,0.519 0.31,0.703 0.149,0.115 0.249,0.294 0.418,0.503 m 5.613,8.303 c 0.039,0.044 0.078,0.089 0.116,0.133 -0.683,0.328 -0.453,0.796 -0.27,1.257 0.036,0.09 0.046,0.195 0.1,0.269 0.122,0.168 0.235,0.378 0.404,0.47 1.323,0.724 2.494,1.774 4.055,1.999 0.038,0.006 0.074,0.035 0.108,0.057 1.002,0.666 2.123,0.555 3.228,0.49 0.58,-0.033 0.933,-0.34 1.008,-0.751 -0.878,-0.049 -1.269,-0.387 -1.367,-1.294 -0.068,-0.622 -0.317,-1.093 -0.734,-1.555 -0.768,-0.852 -1.513,-1.772 -1.822,-2.901 -0.331,-1.212 -0.934,-2.228 -1.641,-3.235 -0.984,-1.402 -2.267,-2.206 -3.928,-2.433 -0.531,-0.072 -0.932,0.284 -0.809,0.812 0.063,0.273 0.236,0.559 0.439,0.753 0.574,0.55 0.97,1.138 0.981,1.997 0.007,0.718 -0.027,1.37 -0.66,1.853 0.659,0.342 0.987,0.809 0.82,1.628 -0.329,-0.244 -0.625,-0.462 -0.985,-0.729 0.077,0.973 0.014,1.537 -1.327,1.511 0.106,0.131 0.247,0.33 0.365,0.316 0.313,-0.033 0.621,-0.146 0.922,-0.252 0.338,-0.119 0.665,-0.264 0.997,-0.395 m 0.082,4.287 c 0.053,-0.01 0.105,-0.021 0.158,-0.031 -0.306,-1.112 -0.613,-2.224 -0.913,-3.313 -0.377,0.145 -0.673,0.257 -0.966,0.37 0.579,1 1.15,1.985 1.721,2.974 m -3.419,-5.494 c 0.187,0.283 0.312,0.474 0.452,0.686 0.103,-0.308 0.187,-0.557 0.289,-0.863 -0.248,0.058 -0.46,0.11 -0.741,0.177"
       clip-path="url(#SVGID_25_)" /><path
       style="clip-rule:evenodd;fill:#ffffff;fill-rule:evenodd"
       inkscape:connector-curvature="0"
       id="path382"
       d="m 150.794,417.844 c -0.571,-0.987 -1.142,-1.974 -1.721,-2.974 0.293,-0.112 0.589,-0.225 0.966,-0.37 0.3,1.09 0.607,2.201 0.913,3.314 -0.053,0.009 -0.105,0.02 -0.158,0.03"
       clip-path="url(#SVGID_25_)" /><path
       style="clip-rule:evenodd;fill:#ffffff;fill-rule:evenodd"
       inkscape:connector-curvature="0"
       id="path384"
       d="m 147.375,412.351 c 0.281,-0.067 0.493,-0.118 0.741,-0.177 -0.102,0.306 -0.186,0.555 -0.289,0.863 -0.14,-0.212 -0.265,-0.404 -0.452,-0.686"
       clip-path="url(#SVGID_25_)" /><path
       style="clip-rule:evenodd;fill:#ededed;fill-rule:evenodd"
       inkscape:connector-curvature="0"
       id="path386"
       d="m 141.072,413.441 c -0.028,0.661 -0.415,1.156 -1.037,1.23 -1.238,0.146 -2.391,-0.086 -3.381,-0.93 -0.477,-0.406 -0.548,-0.925 -0.459,-1.496 0.013,-0.086 0.111,-0.19 0.195,-0.227 0.221,-0.098 0.451,-0.201 0.685,-0.232 0.958,-0.125 1.92,-0.223 2.881,-0.333 0.051,-0.006 0.1,-0.026 0.212,-0.056 -0.043,-0.344 -0.061,-0.685 -0.134,-1.014 -0.074,-0.331 -0.301,-0.495 -0.651,-0.505 -0.817,-0.022 -1.576,0.204 -2.316,0.524 -0.13,0.057 -0.263,0.108 -0.406,0.127 0.911,-0.763 1.961,-1.069 3.125,-0.97 0.12,0.01 0.243,0.109 0.342,0.194 0.079,0.068 0.147,0.169 0.181,0.27 0.264,0.777 0.519,1.558 0.737,2.218 -0.365,-0.039 -0.781,-0.084 -1.197,-0.129 -0.017,0.034 -0.034,0.067 -0.05,0.101 0.352,0.452 0.512,0.927 0.119,1.408 -0.342,0.417 -0.831,0.416 -1.276,0.278 -0.57,-0.175 -0.698,-0.674 -0.624,-1.247 -0.53,-0.125 -0.914,0.065 -1.269,0.424 0.574,0.931 1.442,1.277 2.442,1.349 0.319,0.023 0.652,-0.002 0.964,-0.074 0.47,-0.108 0.767,-0.44 0.917,-0.91"
       clip-path="url(#SVGID_25_)" /><path
       style="clip-rule:evenodd;fill:#ededed;fill-rule:evenodd"
       inkscape:connector-curvature="0"
       id="path388"
       d="m 141.55,420.176 c 0.979,-0.98 1.996,-0.974 2.387,0.039 -0.389,-0.258 -0.759,-0.416 -1.191,-0.23 -0.306,0.129 -0.486,0.32 -0.5,0.673 -0.009,0.215 -0.066,0.428 -0.107,0.676 -0.161,-0.033 -0.282,-0.058 -0.463,-0.096 0.051,0.299 0.098,0.575 0.145,0.846 -1.248,-0.748 -1.276,-2.821 -0.017,-3.538 1.397,-0.796 2.814,-0.724 4.148,0.144 1.136,0.738 2.325,1.406 3.297,2.39 0.192,0.196 0.53,0.241 0.809,0.42 -0.243,-0.015 -0.488,-0.013 -0.729,-0.051 -0.114,-0.015 -0.226,-0.091 -0.328,-0.158 -1.044,-0.681 -2.115,-1.325 -3.121,-2.062 -1.061,-0.778 -2.178,-0.814 -3.353,-0.446 -0.639,0.201 -1.011,0.762 -0.977,1.393"
       clip-path="url(#SVGID_25_)" /><path
       style="clip-rule:evenodd;fill:#ededed;fill-rule:evenodd"
       inkscape:connector-curvature="0"
       id="path390"
       d="m 136.858,406.536 c 0.204,1.957 -0.77,3.51 -2.357,3.797 0.64,-0.579 0.24,-1.319 0.457,-1.972 -0.359,-0.1 -0.604,0.025 -0.746,0.269 -0.176,0.302 -0.278,0.646 -0.432,0.962 -0.066,0.136 -0.165,0.269 -0.279,0.366 -0.245,0.21 -0.504,0.401 -0.766,0.589 -0.421,0.302 -0.849,0.595 -1.274,0.892 -0.026,-0.039 -0.053,-0.077 -0.079,-0.116 0.154,-0.118 0.319,-0.225 0.459,-0.358 0.146,-0.138 0.33,-0.283 0.39,-0.462 0.141,-0.428 0.265,-0.842 0.752,-0.995 0.045,-0.014 0.066,-0.11 0.099,-0.168 0.218,-0.387 0.382,-0.825 0.672,-1.145 0.19,-0.211 0.552,-0.292 0.852,-0.361 0.273,-0.063 0.606,0.081 0.756,-0.306 0.017,-0.043 0.118,-0.074 0.181,-0.076 0.585,-0.023 0.968,-0.369 1.315,-0.916"
       clip-path="url(#SVGID_25_)" /><path
       style="clip-rule:evenodd;fill:#ededed;fill-rule:evenodd"
       inkscape:connector-curvature="0"
       id="path392"
       d="m 144.688,421.647 c 0.093,0.607 -0.117,0.873 -0.668,0.834 -0.477,-0.035 -0.869,-0.455 -0.867,-0.926 0.002,-0.459 0.296,-0.689 0.845,-0.746 1.78,-0.187 2.791,1.549 2.882,2.828 0.012,0.155 0.002,0.314 -0.026,0.488 -0.352,-1.181 -0.934,-2.134 -2.166,-2.478"
       clip-path="url(#SVGID_25_)" /><path
       style="clip-rule:evenodd;fill:#ededed;fill-rule:evenodd"
       inkscape:connector-curvature="0"
       id="path394"
       d="m 140.227,407.426 c 0.985,0.419 0.985,0.419 1.458,0.146 0.29,0.717 0.569,1.439 0.877,2.147 0.09,0.206 0.27,0.368 0.398,0.557 0.09,0.133 0.195,0.268 0.237,0.419 0.183,0.653 0.346,1.313 0.517,1.973 -0.411,-0.667 -0.919,-1.262 -1.1,-2.098 -0.134,-0.615 -0.505,-1.177 -0.773,-1.761 -0.021,-0.045 -0.086,-0.115 -0.105,-0.108 -0.498,0.195 -0.708,-0.343 -1.094,-0.444 -0.384,-0.101 -0.413,-0.457 -0.415,-0.831"
       clip-path="url(#SVGID_25_)" /><path
       style="clip-rule:evenodd;fill:#ededed;fill-rule:evenodd"
       inkscape:connector-curvature="0"
       id="path396"
       d="m 136.418,422.903 c -0.025,-0.238 -0.094,-0.42 -0.045,-0.559 0.058,-0.168 0.198,-0.408 0.333,-0.429 0.358,-0.061 0.733,-0.022 1.101,-0.022 l 0.003,0.135 c -0.155,0.039 -0.31,0.076 -0.465,0.119 -0.239,0.067 -0.492,0.084 -0.552,0.43 -0.02,0.115 -0.219,0.197 -0.375,0.326"
       clip-path="url(#SVGID_25_)" /><path
       style="clip-rule:evenodd;fill:#ededed;fill-rule:evenodd"
       inkscape:connector-curvature="0"
       id="path398"
       d="m 140.737,415.461 c 0.606,-0.276 0.823,-0.811 0.949,-1.41 0.111,1.067 -0.117,1.4 -0.949,1.41"
       clip-path="url(#SVGID_25_)" /><g
       clip-path="url(#SVGID_2_)"
       id="g402"
       transform="translate(-0.1257325,13.124999)"><text
         transform="translate(117.6118,545.687)"
         font-size="16"
         id="text404"
         style="font-size:16px;line-height:0%;fill:#ffffff;font-family:ITCFranklinGothicStd-Med"
         sodipodi:linespacing="0%"><tspan
           style="font-size:16.25px;font-style:normal;font-variant:normal;font-weight:normal;font-stretch:normal;font-family:Liberation Sans;-inkscape-font-specification:Liberation Sans"
           id="tspan4617">unidad-nro</tspan></text>
</g><g
       clip-path="url(#SVGID_2_)"
       id="g406"><text
         transform="translate(127.1318,545.687)"
         font-size="16"
         id="text408"
         style="font-size:16px;font-family:ITCFranklinGothicStd-Med;fill:#ffffff" />
</g><g
       clip-path="url(#SVGID_2_)"
       id="g410"><text
         transform="translate(139.7075,545.687)"
         font-size="16"
         id="text412"
         style="font-size:16px;font-family:ITCFranklinGothicStd-Med;fill:#ffffff" />
</g><g
       clip-path="url(#SVGID_2_)"
       id="g414"
       transform="translate(-0.37170418,13.124999)"><text
         transform="translate(117.6118,564.8872)"
         font-size="16"
         id="text416"
         style="font-size:16px;line-height:0%;fill:#ffffff;font-family:ITCFranklinGothicStd-Book"
         sodipodi:linespacing="0%"><tspan
           style="font-size:16.25px;font-style:normal;font-variant:normal;font-weight:normal;font-stretch:normal;font-family:Liberation Sans;-inkscape-font-specification:Liberation Sans"
           id="tspan4619">unidad-titulo</tspan></text>
</g><g
       clip-path="url(#SVGID_2_)"
       id="g418"
       transform="translate(1.1010741)"><text
         transform="translate(117.6118,612.8872)"
         id="text420"
         style="line-height:0%"><tspan
           x="0"
           y="0"
           font-size="13"
           id="tspan422"
           style="font-style:normal;font-variant:normal;font-weight:normal;font-stretch:normal;font-size:13.74999905px;font-family:'Liberation Sans';-inkscape-font-specification:'Liberation Sans';fill:#ffffff">Autor</tspan></text>
</g><g
       clip-path="url(#SVGID_2_)"
       id="g426"><text
         transform="translate(129.8188,612.8872)"
         font-size="13"
         id="text428"
         style="font-size:13px;font-family:ITCFranklinGothicStd-MdCd;fill:#ffffff" />
</g><g
       clip-path="url(#SVGID_2_)"
       id="g430"><text
         transform="translate(117.6118,628.4868)"
         id="text432"
         style="line-height:0%"
         sodipodi:linespacing="0%"><tspan
           x="0"
           y="0"
           font-size="13"
           id="tspan434"
           style="font-size:13.74999905px;font-style:normal;font-variant:normal;font-weight:normal;font-stretch:normal;fill:#ffffff;font-family:Liberation Sans;-inkscape-font-specification:Liberation Sans">autores</tspan></text>
</g><g
       clip-path="url(#SVGID_2_)"
       id="g454" /><g
       clip-path="url(#SVGID_2_)"
       id="g456" /><image
       y="12.060759"
       x="122.73444"
       id="image4082"
       xlink:href="data:image/png;base64,iVBORw0KGgoAAAANSUhEUgAAATgAAADJCAYAAAC3xi5iAAAABHNCSVQICAgIfAhkiAAAIABJREFU eJztfXu4XUWV5zqB5IYASXhEApEQXpIHQQRbBUVRx7ZFQSHizDcDio6jrY1+9qdjj7a0trY4Yrf4 QAfHtsW2dVTk0RDsUVppHEwQkAbyIBCEBEJACZLcmIR7Y+6eP+495+xdtZ5VtR/3ZK/vO9/de9V6 7dpVv71W1T7ndnbu3JlBSy211NIA0pS6A2ippZZaKotagGuppZYGllqAa6mllgaWWoBrqaWWBpZa gGuppZYGllqAa6mllgaWWoBrqaWWBpb2lQQ+8K3lAADQ6bgtHqPY6ioI+rJ8l+3KOXb8QKgQCXu+ RNEcL586PjoOTMT1xceCevGuTxsfY2MiGlpezdSJcf4IBftVChTQbyrK0r62Sloj/eB8XBxhIoL8 JRUb/zA6Cp9Z9nJOoUAd6UXfGRf89wlJaeB3Cn/8c0w21KZy8Ka2JwFG75wCwQ7NC74mSp6R09os 8Im+42ywsTLXLYEbFQNrB9NX2OHGL+mrQkLRAQMW1ghzmjsRwTVDDnUg1+cxPnaPAnQ6sPPv3i/E 0Scxg+vdOM1glwZOKCCYJ78Qjxo0tP6N/REEMO65ZXJrfaQEsQ4twwFYB+FpdQuHHKARDRpAFliV Uz5mLovCYu2BSoeR7fTtdhwnHojlFRlep+PrFq4DuZDdIwD77AswxbaqpgS4yAlcsIUoSoAWCjCU flmZWeqsjPRrBDfMVjT4MzooTwFg0eAVCsBMm6Aap6MgsSLNCXR8FoFsE00dRB5x2AEEDLuHGRRA sGujg/Bc3czhUQD4h90A+04F6EwByMaQ66EpEODyUYI/iERA0OpjseT1cnasZWZTsjLMp6Rjvlb3 nJlt2v5SZWEG4KP0TLYoXUJfkpGAr4qy1OIiczMwqvR0kLCDtTlKKGDl5DEQ7DhyYsaHgN2eP4xn bgHgBqABOOgEZCZGMMB4qbO9YDA2goQUT3D2yJAIyonAX+PLpKO0U1ZZSoFbEHAJOqFYaMrgpLHV VckDjAOKYtaFnPTMFQT6ch7wTshh4j23HYA9uwGm7DsBrmGbK7oMzgRoikmCtScrobSAIUysUCBV A2igvjRxLZmW2Wck8FkeeCowRNpIHeHBp2rCwNdo00qoqQwX8DCAyODQviDW6tzFfwzk3P7G1teo 7K3T9eGAbTdz6/JLBbj8XxEYUk1cI6BFl5zaSU/Fgfiy6mM2JKCV7GkzV81EtQCfGDcGSBo7SKMF vDB9VDTflhCwkhA1BgjxQgbFla3IBkLh2q0g6Nj0lIlSdc+eicwNAMbiXotRANwUJ4aAiV/glwho VjCLLjMT6Qf3hSCv8qm8NkxeC2IceAbZlWwJPNYm14dG+UqJeTUkJGNzwRADLA+fiAdGlhXtYRlg l7dnD8A++0zIjfXbMKxUkALgnIPQyR80ibVAFAhotZeZgUAW6oeNM/KhwAKUcM7alfSstih9jo8x jMAWg4Omie3uqoZkbNSOaVfWBcEOvgFBASBlq1eW5viRpNtkACgvK0F5kk8pC9HaUZ5bs9bKy29X 3jkX4wq4Z2pARHS8eJB2jR0NKHIxkLFZgI53nYRce+zc7zhCHeQUef+tgHcE+PVkiQejC0o9Mzl7 lK09ewCm7DN+PjbmGpg4dYFUpsAXffPnimwhdCJXDmgBsSdbM1P2AbinUt9ysUmxGvs9yKbCD2dH G4dJB6MI1Ipdw8OAQ3baVUZ0HNDrnrjYCG6mBgBZp6iTl+9lf06f5t93w2xlY7mylNldDaDwTYbC YUmTuQxAq73c1PaVYtKr4iH0Y4AnCMSsNhhZlCcBlQR+eVEDIFWxAaHxQZZ0iK732kb3hNsk6Hhi E8aKoAUd5n03xNaePdBb50ffc8uDpvuunEyR32RQgoQZ0Fw9xk7wmqAV4BIDmvbaRbvSeaCedxoA RNpYWF1M3gDGngmEX/aGQywGktkM8g4cm/nkXtsosIk1N++bBhM2CiCXA56eGec9u/w9yYNflhU3 FNy3XxJkcUaAC5zMojx2rvQ56QENA2tukhtiY2WttiS9hLGogU9xT7k4WLYFrGIRTCBpHACAV4qi 4OCgBrnLigAh9i0F8psLHT+Lc9cAs659zTtu4Win/CZDKmBDBrR2gpQFbNGAppFlQE0Vg9JfKJh5 cXD+UwFiJ1CWilVqEwBSA26WGELkKFLtKHaKsiIoYmtdTJmJgR12XejOqeOLBLeuUFenE72bGvhN Bi2g5WWl8zoBTQtmVjnnnI2BO6dGayCglV3uIiL9gwRgZgUwzjZpL7Y9EtRIU9j7bkipSrW7Rjvg Z2K9Q+IVkA4CgHn/rj83e+tMGZcJwS7jw0K/yTB+gjvJT1jPfxMALTCGZJmZa086J/S804YAWiUg 5k6+QLsWHmWTothMTeekf8hlUp4KgSaZ+9oH+ICHgSAKgAhQuq+VZEJJ2gPIDuBZpo0iSlRpELv8 CgCtzvUzlX/Oj7U/hZjVdkPBLH9iBLSqwEwEMgkYiHYVkGlAByFxMgvZGgCdsWH8go0cYHqvpiA8 TTmal+3KFV4FiUQwgdJ9FzV0MIcAW/J1tITAlhxIXF+J7FWVnamyJaNNzAbrRxODth0DX5Kh8yWZ 8Napeg2OXN4fAWbsmlauHQM+jT0W9JRA5oYfAYYN/aczisFbNWnArSWZVBsZVhucTBXg1vH9dNeu U4xd0pbjV4qpa0vy5TPpNtX6KKFDPtDSUbMArk4g02aSk4oqyt6SUoAPyyQLnuAd77DPcPTLHMck 0OUOufi6NiQfIW2kTH1zqV6AqwPQpAX8JhCZLToHKbKhFKQtT1P0vSljMNrnshfPnJs9WYCtI3yU sXrriVysiL6JIkFPNCtkzYE+qgW4RgBak6iKjGgSkJg5WmwFlqZmcMvpiWPMCmAGeRTo/MOk/RE0 p9z7Us1YLxfgKgWXJoGFtjRsyUQh6z0a2Rhwo40CCVDmBE4BdpWBnFK2IWM9DcDVCSqNWLerqTQ0 kbaspR4UWrnuqbI8Je0FULJ10xhwQ4AoaQLHGClkcwaQM1HEwxq9FvDHAPU3wGUYwO1tgNaIrNCh KgCjVrICJmcqMEvBgIEtSQlgQ+UMKRzapLkmCuQoeWObJNuALM4IcHsLoKXKBKKCIE7rHzSNpJB7 xq4zYTxl1oaCUaIUDrWLmeBADgNRy7iKyOIqJh3A1bGWViXVWuY6B80fM1B+eZqwE0ImLsbTvhsn AZCUvKGYpQFQLDQjyFEUtUvKAXSOoV3uMcbSnPfgagGZBmVodZIINDWDrwSYybI314xkjyoBCUCy Yq0EmNqSlWyPKSkJ4G9YVlcfwO01r4w0IZ2nYmjWYExOQRPWOSftKICGzcYMKRyXsUkgh+2uct1C 9VnDgEtLzcngyqBaAa0+17VnXE0nC9CrwU3KrhKkcIXT3InHd01hPEY+lqQMW/qqVsJ5Wx3AVQE2 Zd40yWmlLhuciaVefwstT6NeY+Cybgrccoem0lEbmKU05UAuIh7yXpY0/ryQ7X4GJIMb8HK3FuAW YmhCTCEU9fU2BbgVTlL3jQByVmDVPlQmMSl+Dy6QKsnYasjUBs4X5TrBE39SkiIrUYEbpavsT/a/ ZLn//Sp3UuAhvvM/JrkX0IBkcCXSoONakzOx1OVp1AORyfQ04Gb6Mr4kTwGryyshi9OWqeqd7nLH XUKAazO2cBe1IluNrusud6n1QE0cyrLQCmxqfaFcpmJqxEvsDAXdC5riAa6h/RRMlYBoDUDdiNdy Jutg0QAxt7CfIgSlzzo2vSqhsAtqS9RBpVqSwsk0qxIAAQd40vc7uQ+nRwVhuQ7yWwNVlPrVUgTA DUhJOig++s4G1JfrOvX6G5XpBpTRXAyascDJWTY/Kiv9letwNZAd4OqPORENWClaiasay58GTJYC WcEj6L08AugGpvQvn9oSddJTlZshFVLTAE1LKkAqNMLeC1DlX3fDAG5AbvSAXMZeU+5ay1PLmhW5 buYCG8az2A2NtepyFqESfRsAbmBmbYk0KOt5g1ZaE05LX5pS7HyimFbyjqyFJmsmPUENy+BKpEl+ owaPqgTRptz7TvEQS+Aw2b2W4vugGQDXmAHYZBqQtbZBvdWWHUQPyDpMm8XH3vjQ4KkZADfZaXLc 65ppUMr3nrMw+cJ6E5HCxV5GnetppVD4dcgAN0mQuqWWKqHU06GKTdS9eAq3GVxLsFfPADW1fcRT M/unBbiWWmopATXz55dkgCN/l6qlwaH2HstUUh9l5Zku+NhLqc3gUtBePID0VEEnVfEwzryDhPpZ lGmdj8lI4dfRDIBrs0QFtX3UaHLHsDemKUDLf7D2WB8l0SSZs80AuCpoktyQWqmKLtqrb0MuQ+Pw Li+7V1N8H+w9AFcJDUgZNmhIV1emg96rrHiIJnCIXl0P6EmeGBgAbsAGfUsKmgRrWil9U0DoyXkG CH3OsZjCCSZSgbZwTZVSet9tBlcGDRpO13E9kzxz6BF7HdIanMYGYjJ/EA3GZVKiTRWG7ADXhH5J QoOSkVZ5Q2q8+Y2YkBgpgCMm9tT29jJqM7gqqNLXFyqgJpQzvT4tOzORylRMhQAlUyZGyHPrepYY yyBxl7d6igC4AVlQb8BNSEs1DW6AZvelen0t5BoMWVYXuDgQ5HQ1viUZ9+FgLWPrfD3FSPEZXHOv rcHUlpWTktgMKaCUzAOaRjY4tr2XJleJOmgZXaU414QR35BSiiRhNxWVlUwaS1PKBt6giKF5ZSNL ZEYdFndCgGt4x5mpyslXx0QXypNaSJiM5HlkaaW6dEZW04eha3AmcIu5nsRAqL1XJY+7yZXBuVTp 02hQfVGumwB4dZBiLQ7rowJPAXQueKnL1Zx9qUQuI3sjHxLNHC/lAdzAgk8NVCvoNL2sjKWArIfi iYCDqVsyO4Uv1VhpYvZeDk3uDM6lWta0ahgcjXpaGsvK1P0VXaaiQoyskD15/BTX69gJATfLeI3q u2ZRdQBXR0ZXy4ZBg7KsJhOZEVoBM2EwKJ4FglwSoEOALQrcMNWY/iTmmbT+lhH3PAO8PSLW+jK4 Op4Gew3gETFMwidwFIVkIur7RoGcBui0H8mOMlQ2ZldksMbIYJWoTaZGvhwpPEkbESNC6h06k1Ga p9nJpDIrtN0QkqdHAR/hhO0bQ1CTbHOhSzqAq/T9swEvZYkQGgsmAGAGQu06XKi9FGQtPSWQQ/UI oDMmcKg9DlB7bAzwGJ0ydlm9cyIg8tsVgn2BjBncgJeVns86fHsH6GlLDoV8N1VVqmrktWWplbTl Kqaa+TKhpWkjqw8dhZWodWYdtQCed1AjURmFYhBPZorZbDCNGSxLyvM4kOOAKM8MSOFI4MRCkcAt 0SBp4JfrXUqzBlfnddVaXtaY6YlElYHWcjHUvTT4Jb8BAYTcD+kL7CaQ68ohQBeSxKF6gqEQcCsr e1OXpwG2lZR4k6FWpGtMCFXcuOrIAY0mXWOqLM4EcrkHhQXoXLYxgVMBWwHgywA3pi1pouE+qMLn drm7qLWmrFTGUiPtbWWlmQTQ1NzL0KxaDXIuX/ITmsIZ9LCszTk0gxsZk1KPzPyqHezVvibSBLBp 9IKpNMFduSbFjpC5TE3gA7OvkqXalSBn+rqVOX2j4y0L3Epb4+wpFf6UNQ/rfQ+uSYuUTYolmJRl ZPB6mFYuASXJ4oxtZDsHHKFAF0EosBnATWPfZzJtkn7UE0zvF6F9IzyXSBnsd9SRcPHxRwF0+txO /gQAoDN+vnbLVlh+79o+f+ZM+PALl0Cn48g7+t3m/3nXWoDh7XD28xfCkoNnUeLQ6XRgy84R+Pov 78PDnrk/fOTURUSs7uk44/KHN8POx54EAIA3LT0elhw8E7edi6FLa57ZDtet/jUrT9H0eYcVzp99 /LdBdgAAphw6G6ZOnwYAACPDOwC27yy2DU2FbgeMbH7K0c7G2w6YAUOz9p/gTVyjd/9y1OnA7pHd MLZl6/jgd2V7vAyG5s3BDMg+EBod/QNkW7b1TRwwA6bNnNGzObplG8Do7kKcEk07/JC+/ae3AYz+ wReiQGfaVJh26KwCd/TxLf12jFxbB8yAod41ZDAyvAtg+46iH4pCdqipr2qVQHqAyw0Yb7aWQBcf fxRc9uaXq2R/tvbRAsDtN3smfPa8l6l9ffGhx2DX8Hb489NPhFcufK4of/szw7DqwQ3jJ7l+mTF7 Jlx69ovVfgEAYPmd8OkJgPvAixbCK044Qq368/VPBAPcHee8CJbOO7h3vs8Xb4Sxp54JsvXMO18D M/ebCgAAb756JVyzZkM/xtedCi89pg8wnb/+HjrpP3HSMfDxVy8O8v+j+5+Aq9Zthqvv34i2P/tW /ViQ6PaNv4PTvveL8ZMM4FMnzoePvfz4XvvQP62E0c1P9xVcAECufeSCl+T0b4fRJ55Wl95fPX0h vOdFCwqtU77xc8i2bEXUcJufXDofLnnFCb3zT936APzVivs9X6oqJ2rXlVCJAMLwErUC9LVTNQuZ P3/bHwMMTUtrNDTkwHLzq3euL2h9/uRjVXouf+mxR/TADQDgmvWPG4J3bYfRWYsOhx+ceyqs+M+v AJjWj6W8clGyy6yldcvL/AeTUdo854S5nuQVS49U2iQIdR+7NKDwUQKlW4NrJOCVQ7NnDMG1//E1 dYcRRVeue7Rwfu7So4LsfGjR/N7xTWs2AYyOykolAc9pCw6BNRdUCXIa2xnyidSZYHUOmQXzZk33 tN94wuGOfPDTk9ZX2XQfkoyMZzfNfSt/Dc5dH8HWS5pChoFw7guOgaW3L+iXqpONtu+AVY//rlem zj94f5gy5yBbmTptKrz1j47pnX5zTRc0Q5Yxin0//R9ugZHuWlLPVNHm0Lw58I2Tj4b/8oI+yC6e OxOueNkSuPhn9/R4nUuvzY05P67sI2/qHa/c+DSc/n9u88OzjNn8paBquvJTYn9l6XyfCQDzZk2H ziGzIHt6Wzy4oU2BgBcSipf52YzU/2sik3K3cpx6pWrGPOkaTLFl6rLj5hX0r3nIUJ4GZQBFnZHH n4ILbroD3nLdXQX+n73kGIADZgBOgfdIuUPawd7eT5zAdZn58vT2jb8rSFyxdH58WalpJ2UCsrcS lpjqBziXJjrrivUb4cM//Dn8dA2+cNylv7j2Nrj8tuKu5q6tw/AX194GP1v7KKEF8MhTw/A/rlsB H7l+BezaOgwAAJevWA0fuX4lfOT6lapQ3VJ157bt8NEbfwkfvfGX8A+/uJ/RBPjL5XfAXy6/Ay5/ +HHo3tAv/HIdfOymu+BjN93F6l618kG45Ee/gst/uW6cEbgOF1umXrSkL3/Tmk0AI7s9H1ly0Pft Xb12I3zn34vX8r7nOZs11PtiZvcO0BnWy9BmdShFhc6hswvl6WnL7y5Iv3GhU6Z65nLXQcUQW5pi PEsJmqBcbehrIgC7Nj4Gn9u4CQAAXr2EnniX/esv+ifdXd5t2+Gyn42D1KsW42n8hi3b4LO33J7j dODGe9fBjROlyGfedJoqzl6pun4jwPDv4TO3jIPTjPmHwzteuojUu/TWuz3e9avWw/UTJc3fvP6F pO57f/UA7Nr0ZC/uYLKUqb2qc+Jg2lR4w4n9Hed+eWog1XLFhD+u6s0y+K/3biiUqi8+bDZ8mfUX UkY7tnSCBB/3PZ4ByrbzGwn/94HfAGzfAWufHIbFc8dfM5o3azp0Dp3Vf6WlEFJgVmYFPCLz5mXT ki2DcxHVcgFVkzmk8GsoZVe1LHLumbpMdWjZ8U55mt89TTEumCQAaxzZVHyP75iD9ldMSCrDqmI8 m1O4Ap05v//u3DfXbQYAgK/d91hB5gosIw/NwEy7vbgJvwS1gGNYP6UtUakBOJnWpgJinT1jCL7x +u67Vkr92K8teeWnskx1KKxMzQrl6fLV3d3TgMwgOANweAfuj8gQ9rUg19Rxu/9+vUwNAOAHD49n 8196cHNBrFCmxlyPFdwwHuc65GVhJdWzBjcQX4sq0jtethhmHCmsezSRJsrULo2XqbPHTzwQnTid Nq1Qnl6FrZOaxqwhq8gQHgCcP7/4bYWbH8l9YyJ4Lckg5+qkBsiczffn1hdXbnwaYGTi1Zzf74S1 Tw732ubNmj6+2aJ8aZj0a45VYVsVUnz/NW+TASDJ4mIdtObChpaqFFCRZepxrLllxxe/7XHNQ48b 11sM9xUDNFd92lT4/CuXFFiXbnS+ekaBnHY9Kib7kT4anRy9+6T++tv3Hniy0Pa1e4sZ+fuPpx66 +fLYWKpbS1MTmHGgaL8HzQS4ULICY+LMccGhB8LnXvWieEOpy1SB2DIVAUevPB3JfffS7n5C1vi0 72WT+8LqC8+E587er9e05oltMPK4+51XwQfnK6/v2MiqfggfMKNQnrpl6ZfWP1E4f/fzsU22XMwm EKP4THbN3Tu26xz9wG6Wd1HJF3UzqOI7qdXSxDUJE2HrzhGYPWMIbfvQa06Gj2u/H+rtItbRpxmx mzobxp5Cvs84NBUpT7v9BsWdVtate+1Feufc2fD3LjP3wu8J06fCf1twGLz1lKNg5vSpBbGT/vlO 2r5657bg0LcBQNsvkfLl6donhwF+3/9hA8jG7+Wmrbt6gL947kyAA2dM/ACCbmmIvISodTfqIYy1 pevD+NdE3EFNDfImf4PBSGdc9WNY9d5zyPY1F/4xnPPDWyuMKEcUaJL3aZy+eud6+F/z+j8U8PmT j4MP3HxXwQRABucd55Sn5HdP40Duite/AK7gtT0afnY3vPNH94z/wghnXz0WhWuoYe04X572ylEn jhvWPQHvfUn/GybvP/5w+NLdD/UFQtcVfSZyaATB1EsaDjXnHz9Poo2H1Q9ugGvvprO0BYceCN8+ 6yVkO0/G62YHlp7wMtW3edGJTnk6OlL0X9Nt+87dG2HWlTfD1WudDQ+u1FKVYfm1Kg1FdgA37t3y dP0TqPz7VhX74N3Pzy85VARuKI8BtfTJGwAMwhocCYx8T/XesA9ct1r2/Z/A1p0jZPvz5x8qWOBS 9tTkgg9yvn0H/L/1/QXr+QfvX/zNuAwApk2Ds0/sZxAf/VVxc4L0y4rEX/+KR56CC350B8Dvd+A+ 1WDG6RBAh879rPiJpe7uaW7DYO2Tw85vtvVpbMs22LR1V+988dyZ7G4qW5JGgZtEmodiHPI19psM jaeR3WKpWhl55WfYcsAX7noQzji+//3Gr516HLzt8d90jcN5ud3T4V27YdWvNzkB4OUvEWyO5Q/e 6d/4GbJR0Nd79H1vgCMPGv++6elHz4Eph8yCsae7b+0TAYT0i7felo9Vacv6nhch/59y77Vds+4J VKYbn1umvu/4I+DLdyMPJCvwS0CGrbtJdlxewmxOB3DSRoOwvjOotHr9eKl63inHJrYs3Flmwux3 5Fz44NHIqwGdDvzNPesBhneQa6bXrt9UUHnT0qMAbuh/FS5fnl6/+lH+PltBDhNh9C5b+SB8+ayT ey3fevHz4MKb7syZTQhyXT0AZH2zIpo2FU47qv/thUvOPAEuOfMERqFIf3ryUUWAC3o3jgI3LBNj 7JP3VtKz93fJGZwzyEigZM4bSX1wWPaDm+GZhc8ld1V1dgInHUIfPPpw+NRZp6Jtf/fIE7BrGC9r AABgZBRuXPUonD3xMzwz95sKS497Lqx6aBPA0FChPP3b7lqX+3ALfLrhYx7rl3H7V6x6BD79qiW9 HdQLTlkAF958z/jPhceCHNfO7aCSF6Kn3cQrN+cfG/cSea9M/f3OwHkVCW7o+34K+UgMaPwa3BXr +V8TgVkz/U6YOH/tQvyL9h4FrsMBAMDIKJxx1Y/18snIveYIG7mBdtXqDQWJDy0ez9q88vShYrbH 28XiVAZMrQGN7IYb1hZ3cD/xwuchprVrbBq/mH5RbuH0qRO8/IehA4s/6zSGfTkeMnj7wuLrISs3 PC1+8utwAADnHzmnAeCmWXfjQrEpNn4NbnTXs2z7h/9oafEXRbo0NET+kggAwF2PIS+CBtLq9Rvg un9/GM59wTGycJcSrZuZKF8FEK6oMvWiJf2+vH6188OWXhaHOaUC4mrc7iGeyV1462q44JQFPc47 TlkAn1ixuh8T5OPqnThmMuc089uY+7JqazEjXnbYLLj34c2OFN0HQwe6v1uHyE6bCq9b2F8bXXL1 SnKDIU/nLzoKfnBuP5u/aOERcPXaDYhkYEnK8XsspD/de0uSomwVSAFwxAQk1+HS0p7f8kD02WVn wLGHzIIv3fsgPPzs+K7mqw+aBV960xms3m2P/cbj7fOcQ2HadLnU3G/iO6ejI6Ow57e/A+gAnPf9 n8AzJ7w9sFSd8D/nIBhS+H/rEYfAP3ZPnMl37EEHGr06929kxCtTz1tyTO8cAOBv2d/oU5SqhSbl wMFAbvsOWPHIU3D60ePfQz3yoBnw5sUL4IdrN/RthvjCfHfJieEGB+BeOHc2PmkJkPx87p8MuRlX 13e+POV2T126+qHHYfjZk3pl/FmLDh//Offuf/3SrsOlADfJh8di0381lZDBCU/1gHW4q+94AM5/ Eb2g+q4zT4J3nXmSKcob73feY8syuHnZK+GVi5B/2OHQzg++BQAAblm3CV515bXjzJFRePm3fgL3 vedsUxx5+ukbz1D9V60rl70Urgz2Ij+Qrlq9oQBol7/2lN5xoTwVN5aoQRr4QERA7k9XrIP7ju5/ 0f7PTzl6AuByDlKAXD4GgF4cI5u3FJpft3Du+C+buCCETfZp0+CCk/vj7eePPIXKvX1h/6eprrxH WLLJ64/uhhvvf6LwO3nnH3cEXJ37r2eijdTghgGYJlELXItr/BocAMDbfnpHUntfv3UVwAj9Dlso rXpwvFRVk3OzK/9eozvYJv5c+2Dxd8XmH9z/KaLrVzETzLy+ZpQH8Ab6ql9vhsee6X9d6fSj5wAc 0I3XmUQZeoL70K7BZRl81/k14TXnn1b8xzcYTZsGay54eeFrZu+4D+lFzN38AAAYzUlEQVRbpzz9 ivsjAk4sLl22rrhOedHCeZ4MSZVkbt2xl3CdLkeTAuB2bXwMrr7jgSS2tu4YgXf9eEUSWz3KTZzz vn8z+wJwvaR4VGYAMDoKN9yH/0Lv+O6pOwCt5QT29LZkAUX+Z1cUx8a3X5H/ZREHzLzJGQl0AHDh HcX3yxbPnQnbLv4T+OTpi2HKIcV/ygwHzID3nXIcbLv4tYVvJfzLuifRHwg4/9hiCTvW/UcyyheJ 73t4Mww/29+ZPWvR4QBDPPgeM3sGDB0xB4bmzYGheYdOfCbOe/zu5zkwNO85/f+BId4zJfgheBdC yhLVug4nlKkB9JbvLIdfzZkNpxx9mCzM0IXf/VeA4WEobWHfWqoW+qgGIu7Rt9ZsgHNOKm7S8Lun WOkpgZzie57UPcrxv7LqEbj01Sf2sqFzFs8DuHnq+K+cYKVpNyztrRc2G8a2bIVP3rIO/uqVC3u8 mdOnwiVnLoRLzlyI6uRp7ZPDcNbyO1G/b1zQL7//+f7NtlJtQtYrU489IveVNh8kLzhlQWHzRkN/ /dM18InbVrFxFHnYSfo50MwfvMTOR0bg1C/8k/hPaCjaumMEzv76TbD83rVB+hbSlao1AZrGf+aX qQAA1xVKKKyMUJQWVnkAOSsY3Q03rOmXYjOnT4WLlx5N+KOyOQUxWdPHV6yBT96yzmgQYOWGp2HJ t/9t/Ecrkczs7EX9DYb/jZWnihgvW1d8KF206LkgZq9WUmXbXHamrAKMa3GTokTt0cgI/Icvfxfe cOUN8MhvsfeFcPr6rffBQZ/+Jiy/pwxww8u1ZpeqXWJKTaRM/bz7RXYOoKwgJ5EwgS68tZg9fPi0 5xVdqNaTDDEhQPLxFWug88V/8f7DF0ZrnxyGt1z3Kzj9O//W39V06KRjjuhlpcPP7ob7fu2+fkLH kqf7fo2UqT1dMdRwkjI3MbNjmSrq7Ny5k9We8Z5Pd0Un/jhpuvsPdXvNxLmnZz3v8/c5bA689bij 4NAZQ/Anixb0+L/b8Szc+ehv4KZNv4E1Gzf1f9KZjFHwHXrtqD1lP5ExcDzXLyYbaZfSx+Qxm5w8 qZNnEXUlu9RA2UcYUruGJmIZmjcHThiaCsvmHtRrunTjb2Fk247i77hZKfZlXeSUbxfWKbX8HhCP TXyc87EuSGcAY2O43NgY7Pzcn9HxOGQAOIAmglyQXnKAY2yrY0D0RDASfKKy2ITlYgjRF3hlgRzb ZgQy1EwA2HkmlDaSfE0xIEOSgK/QZAA3yCYy6Qwg2+OAWxfQXN4e6K0Rjo1BF/gsADe5StSqiPrq lrRWaPLh2vYaEusS18DZVetr1+My8JiYTyl74HYPyeuT1t+QdlIm5r5nuk+4AzxG9npyp7xC8Rq0 fHJLVJLN2Q2kwQQ4EogIQEjytPSC4GNQmSCA1uRX5YjmoU0akJRiiAQ5Lg72fmpBzDktA+ySkQBq KHBx/cDd35AHC2OX9IuMv4B5agQ4KZOhAMQ59/Ss54JcmaS+dpNRR1dhhOxjjawV0DRxaQGLGPBl gJwlm5OALs9iwa5s0BN8iTFyLCb24KzZP+wdS+CG2rL17WBmcCaSQNuRi3IVAIaWOEwAGWpHAZKU japBTmozAZ0WSDAB6pNCh2sWYqcZjnxIm3AP83rq3VQ7DQ7AWbO/lA9ZKYPVGbHrJpflAA3jCSCH 8Uwgx/j2XAgZRgjQhYCdgBW8YoBKFCArgC04Q/YP9feesBVA1QEcNcFSlallkHazIcimAWiTZ3EK gFJjlxEUC4eagZ6zhYGfKp5cmwXo8iwtkGDNKT+iM/mSVIAanLUJ90scE0JoxqknA5x5R9G9kAqA SEtlbjZUnsVpZJHJ6okYwRLlBYAcyhNATmUPZCAT7zMBGCqwU4BHFAm+yCZlbKmzNhK5JETDwNre r5OzRNVuNpS5O1pZFmfxp7BnAU9RXgMUrhj1hOd8K/mee6FN3afYZKObfIGUH8GVNn5PLOahYL1n kh3p4amnagGOmizWMjUluTEl8e1ObM0Ao3Qtfhh7rL4WvDjAkjID4iQZyIVkHYp2zwfiy4BF0ST6 MQYR1T+OD+sDSRxH2nFJkw7gJnOZWsoaXgIwNMWhAJEgMMXiwfxqecKATAZymXeICDphKCey+h4q gIQCvpiP6EgTuuJaVeuVjnv/RL7nWSaPx4g5O3lK1CrfiZuMWZzVN9amAlCJlwLkMv+YAzMKADHS gJgJ6Fy/RrCJ9mF8qEZfuwHAsHuagSIGIq4AqhDghElXaVnqgKMFhPpGHFuu7YA4GDekv0KbQl/b 5gsRoIjxYkHOPbFOKJThhGOY7MFjkQKk0E9ICMprUF2n1N/+ofn+Bo0tmvQAF12mlkkVgGXpWZxB NrhU1fjXglOTQI5qQxlOsxLA8kBR5sM3lqxxqoEtpP8VIBYBXhpqdolayeYDASxBmRhxjvmzyFoA ktXXqmnBsQ6Qy7xDVJ+bhBhZgaspgBcaRyiwmfrccIzqxvdryQBHgYdz3jtNOFDKAEcqi+WV9KIq WUWmxeIK0mgFJxGYNHYUtjL0hPCJyMUAnXV8uECTGvhS2FfrGfuRbFPeN/Q4Td/ZAM5cppZA2s0G m1HHBAcilK6lDxSy5ENB6YMdKCWCHMYj48zZosBMkxVoJqAV6ADSABUFTNZPCv+yMMT3K3LMdTf5 EOuyqbGgowaUqMJkrzKrC7GhkmVAipJFZbwDTsjniaCkaRPsUT4kkGN1XT6RIQQDnRHsBmkNDuuD 6AcGce80YEiNmcA+Lw/gyMmtmOyxvjy+xZZzEJPFaeyz9jhZzifTx2pcU15TlSDHThDuSS9NUJJJ U1MALzgO5HrJfqFOMWALeWAh/MJxeP/av4uqLVNTUsqsLkWJG5PFBdvlQIvRw0CSA041yAkDtjDW Y0FO2WYFMVbGOMbKKC+T2yauDX14SH1F4IAn69pRjIUCnzrWUU0lqjtZEwJYo7M44boL+hygMfq+ kCAvgZwbl+RD4ZsFOQwgEZvkZLOAmHOaCuw8MwxAlbn+xl0DyraAH3HOjgMK0IhjTMjYH4kAjnBu WYMyu4wAstqyOLRRoc/Jcjeekxfk1MBkBblcvKVnc0agy7NYsEs5kFMTE6d4bRzL2r+a+5TlDjXz wN7vYd9FLaUcFXykLEtN4VieHBpZBdizgMvoq9fj6gQ5jT1El7MbMhFRHS0guI11gZ4iBhVgc7Ih wJYRbXkx1yZyHLmDClBFiVrmZkNMJhaiawFdjSwGIJQQiysawJBsSDp1gZwmE/BPxYlJsFRgR/YZ BjgxABhgjxURro1lGvvb1CYdh1M4wFWx2VBbFkeAsUWXjUGBNFpAtIBkqI1aQQ7RJyeIf2oCOi0g uE1q/JIAy2hQpaIAbLSBOqd0KHHnHpMYRjRE4okC4MoALte212CwRQGDZoAEAKhKR9Nn7rVzvrRg xPmNBDnUDuUHuzYO5HJxl5LNYczQic+ATwLMirfFCKmuzeVxLMM94Q3lmhLiDCQvUYkJFrKI7+kS 5zG2eOHCHzb22A0HzkcZ63EUj42D0uEGMThjOSP4WpuuHGbDCnR5nhYQ3EYDemmASz2cFIomUAOc Z+5n5f2jbGRQHAOaV0sIUgKcBFwxZAAStUkDoJquiegHq6ylVEVtcmrSYMBsKOMIBTlWl7FpyeY0 ExCVCQA78halQq8IO6yI4ZrZPsNP+bgQ3UIbqkQc66nC/6rlTOoYHEv5iggrY4jVsuFQbJR9xKzH lbGzqvZDxSfxNXYxWcEWwTKDndtkwS5W2WBErRoI5BzTAmwAxXuIhUE2SnyZ4gEu5WYDNnGCbTkg pZLlZJwDSxan9Uldf0FeADSNb1JMCXKU75j32tBJk7NbFtAFgR0zoSXsokyE6okBKK5N7Av8tM+k QnHum3tPyHFG9a0dBxRf1XIOkqyBuRMpBsCIc4suK2MAKeuGQ2ypivpR+mZBh+CRJvJAxYGcBswI na7tJEAXC3ZYu4g8qpDtipJ/pk17zRrw85ox9Bba3DKWtKenNCVqKa+MBABYyh1VNiQD6Kl9YMDC 6XOAhvHKBjnHV2zJyvkW75VlgoaAnRX0yvhofTPNaCPPUgEb+xIv0VZg52y4r5YYSflNBuegzM0F i+mQXVGLrmoHUxODEfQ4IGXlJV6FIEf6k3xq2zgQZexZJq2EJybwSUkGv2wz0ojKK64NBTbmXlIY 6NqMpBI3GQgAqAyUFDpBO6hyCKWXqtr1OJTXJJDLvEM0ntRAR7BYwDDhGAVAqT4Gt9brk5mOiALY uCFAG1YcyxQAcCmAy7VFnWtMRACmxp4mw2JBS+EDMy6BykCAnOS3LKBD7KKqArAY8ScZmfwq49fI F8SswJYJY4ia+9pxhNO+skgGAJ3eHxt1dTOATk7ZPdfYsOha/JnsMZ2guiatvrXPMcEcr3eY52Hx YjpOPIDYIkPJKXQHJ9pHjl8A3IaqnfPj+iwY8ieXZ0IUwMUqIwmUInR7YgQwkSwkYcicc00MtWwy TKYsLtmGAxGv2k5Gt0Wtx2H9xviX4uNsFWJiMgO1T0SJs4Gc+vpuhkGRMsNBTbkCyuwnmpQ+TfFL Lt3+RPSke8adU/fKU7H1rfGbDJRXjYkYMAzQLe21EbSRlrGWqtrSE7XBgJwJcCwgR8Ql+bQAHdem BToz2IUABiec8hMWvhmE0b7TAht3nzh7CtAzUPpNBk0K6ys5otikFPxUkcW5+ig2GK5XlBfAh7PR WJALuHbzBCKYaqBzbSgBz4AdwWTyGRgU2k8pgA0wht/k+o8AOgPAUSBk7DjunHEbNGos4GHNvqj+ UMehlRfAydMRAKgukOP8RpWtSDsqg/g0TxwDknFAFPNJERuqTvWJpY/xU7G9cOw2hIMbQMg/ndFQ yizO4ie21Ky8VNXK1w1ykh4hj5mi5MR+NUwgMgxMLhTsXJuRAFOHLxHUuD5HmCKwZT6YSWM6ksJK VBeEmpTFaeyXWqqWBXJFcZJKATlHr3A/MD4TKCcnAk1qoGPALsH6Dw9IIZ/YcLjro/oEc60FPzIQ px2LhdKzkfF/MkQAmUrXnXyBABQiw8maStVAv6JvDLAoECkZ5Fhdgs+Y8ieMiOL+KWoPmYRasOvG kRTwKiYxfgHUtH2KKpNB0bIl9HHET5Y7B6VlcWWDnhXQGBlNjOJaVyKQQ20j/EpAjgJiwb8qmwuY cCqwUwBek0BPFRtzfWKf8CwR2DJuHEhtzLlAihd9c4all11JnR5DoTshY3Dj+7HKKJxh+myfdK+D 0zPG4Mr1DhHdgg9MJx8jwiPjlOxB3yYQdhlznmJ3QLP319XJNXl2C0yS7TeiAvKEU7/QLlAQmAo6 ZDPzQLLYB0AAylFT5DaoHSXpAY4KID/BNEDT03VkNQCkntCEPYtPNTBRMYbY0oIiA6gaHQrkAPz+ ZUEOEF3JV0EQNYcyQoCOdKkAOzRMapIxMVWS5Sl9sGJaUFP6w5aoXMDSdk1EH9pK1LLX4tjFe084 wLfCZ7B+nucdEHKY/YxuK/CwPlLqcHqF2HOxxJasUpysrNOPqjU6InNAsxC0odgkjkXuE0uB9kUx olHsKy5U9/64OlLMgW0EJfhFX+dAFYRB1rPPycaCXiigISCJgZyVagc5lx8Ccso2xiRuywJ0IWCn ADw1fkkAFQmQajVGIOQBUBDD7od0zommeDCEAFySLC7SvgU8YkFPm3mxcTOAHrXpkLdN6Od1tLur LF8JcpxdKVZSFmGqF/utE9ttZCZ5AoxShW22bQBsXQNiw+1/RNfUB9r7qaM0L/q6gFN2FsfKBsrE lqpFBcRUA0CuoFcWyHH6yjbBLG4vSwt2pJlA9NIAVTAwKpXZZuv1UMDGs/QCblsY6AW+6MuAgagT a9+dzArAUIMKY1Ojz67HhcRTBcgJehQQWdblONupgU6MjdJXAIIJ9KIQK96mSiwQ1KKBDRwB7joc f8Zkw/iiLyfjHCTL4rAJSDpnRCJlYkpVDIwbA3KOXiFWjK+ICVPigKxsoAsCOwNwmOZcYiA0qQf4 IPswANjc9gx48HLbKt1kUK2VMQGHyHogqonPKGMtVasGOYxSghynawY5RL8MoEN1YsHOtWWIJRa/ ktiJAU0J1JB7porFYRWaXTDTh8uRHuBMWZZ1EEk+hYFFyYSWqilAzg9Q4En2MqbN5VcJcrm4LNkc F5tnRjFBUZGUYIfZDAAPyYzZVKp4DKAGOIuOzeFZK6UICnwPjjgP1hEmLyIaBByUj9j1ONEPAzjm jILRqRLkyDapLxVgifogmbhIJWBH2a/yExNyIKiFAFsGDo8AP/Q4nBL+4KU7oRKhtGnDQemr8vU4 ADPISQv4VpCT7gsHchl6woNcaWUrycTdhIJdEtBrGLHXxqCXGksZUPSYnIAzlgpNtnsS8R6cxqEw Gc2yDKBxE7gR63F5HnJSNsgVDqmBnDnXrAEzl88MzqIz344G6DgZjlRgx/TJZAM9VdwKUEsGbBmC awKQJejrxP/ZngEgUkfRptlwwBtt/q2lapJNh9CYYkGOCsKim3mHvo40UI1Ax8rEgp3byPRPE4CP ikMEM6ZPzaBmfAi5Gwgu0AEg/sP7NuzL9lmm+PUOCPgifk+J8YnJdH3Q6qh/1XVk+BfWrXax+N0+ MseZ61sA/Rf0C5dBdBqnC4S+ZzcnSMVYuJa8POanwEBZxcmg+OEHd+6ovmDPjNFGkAHoU9gmHxTu qeBQSnoC+jfdGhy7VubKEOd5/UaWqqkIy4qcp5w6Bose5tc7KeqGlKzSE5wlIivwGFLmgCrLpMpk sGwowFcUGWOIClXb54wcas/lEb6pMaygBO/BcTLeQZgdTpb1kRDQkq/HNRHkGKCj9DP0hBj8OXvR QEcwWbkAADIDAwc8KT8pY5aMIGyJSfp1x5KrJ4xlI6X9t4FsFpc5MqwhWlblgzOdAqAmKchh2RgH RKRfBHyC2lIDHSLHygZOoEDcSUrJY2CMiH3Jsah7w43XdB2Z9j/bFxsLf4LtVFWqmp8WJYAcxksJ cpxvLcipsjlNWyKgs0w61EVihOKAJ+UneaBMs9SAymL3IfPteUCH6HD6AiX4PTgmIF+YlrGgeIpS Ncl6XGKQIwGiQSCH6nM2SgY6gkXOUBEokiNJQ8gAaNa+lJmIjHPuAZl1XOCU/j/bA+SCwSauK8Ma omXNpWoKQMN4NYMct1FD6VG+u4cZeiL4tgCZ1G4BOsSudoK6TSrAazrwKeM1XbfE1vYLcr8wEa2+ ghK/B8fJeAc2O9GlqtJmDC/aTgDIkXylnnWXlPUtDWBksniMkCe3diK6DSETnxKsCgAD/ZqBnGhC G6SQnfuIlaI9e2kp7p/OcJRlYf9xyjeE6Ls+MPGcHsZjbVh5TIyqmDP/nbOCyfy1EH2G8rsDhnlX jvLvHBZsYfoF246NgprDQM26MkzsxUByx4n+cxY158TbXSbIpXArPaCjHfgPJxUehsaFUwnvwaGN hT+sHpeNaEvVzDvwbUk+y9pZVdnG+st9AirtBuk6fUnFIdqQ7HDtmEzmZwN0MLhRcyZD9Zfik5qC fSoE2WbDRaH3iLgP3r117HDtSkqbwblZhDbDkuxIbapsEfCMKCkhdi0ZF5XJAfh9ZsrkDLoAub4E gCTZnGOnoCq1E0x1VpfXR2J2Jw1qjppZim/zVE5Kp6KYMXhpmYTiYQmOV86GUzmbDHlSbQZgTxSX p73orPCHMiH7C+Upday2MoxnsKvVlWIoqAk2UmR0qIz7ZHd9cWTMZFizmLBa2UgaX9R40IgFxM1m a9i9duS4Od61H0npAS5Vqcrpa/2ioMDYmlQgxzwcOL6rqy5ZsTiQNjEOI9CRLjA5K9jl7RgBQu1C C0wJgNKkGgjEZB8r75u3waC4XxFAV34GB6AHH40eN7Ebsx5nsG215YEB0JOanexZUY6Ky5TNae04 trT2WKBLAXauPQm8lZ9YivYTGZQIasr7VBhKIR1jj73k9+AwXihopfSD8NR2LbwKQc5qG9ONzuZQ BuNDMzmQSUTO09Rgh9kNAAktQEUDZEKEDQU16d6Bf+oxvSyPVBKpvAyurlJV9NOCnNOg10+RzZG2 CBDjYiVU2Yb8xI1e4ykFpWrwAUK/WEANaFnsXmAxkOeIjkDlvQeHUZYl3FWdkEdtcn4EnkRqfxmg 74VxOlZbBbN5PmMbIHyXFY0FgN4B9RiKeAibqF3HNsFmGvAJo9qZtVIsmCYmESioB51BHpWlHjqu mAt0lF+eRICbPv/IMMsd5wAbNK4MJee1pbCFnEgDW92ej0FwrplMaN9Reh3m1OjXIgcAHVGWi02p w+oFAFMpYJbAX3R2aaTgNTEtuwtSGWSFTDF3PDY2ITrmZ5R5eQN1du7c2bBHS0sttdRSGqpmF7Wl llpqqQZqAa6llloaWGoBrqWWWhpYagGupZZaGlhqAa6llloaWGoBrqWWWhpYagGupZZaGlhqAa6l lloaWGoBrqWWWhpY+v//6VGniUgcMQAAAABJRU5ErkJggg== "
       style="image-rendering:optimizeSpeed"
       preserveAspectRatio="none"
       height="103.99958"
       width="161.43219" /><image
       y="754.77332"
       x="126.81153"
       id="image4093"
       xlink:href="data:image/png;base64,iVBORw0KGgoAAAANSUhEUgAAAO0AAAB4CAYAAAAe5nV/AAAABHNCSVQICAgIfAhkiAAAIABJREFU eJztXXvQHUWV/80XSLIsCchDEgJIIAkQfEQgJLzkobI81qpVV1lWFF/olrvuVumi/qFVW6vlg8eW iGuV4hsLZLEQqVoQ3TUhIZjXurqIYAImUSQpCNE8iHmQ2/vHnZ45ffqcfszM/b4vcI9e7szp06fP dM+vf6d75rspdu7caTCUoQxlv5GRsQ5gKEMZSp4MQTuUoexnMgTtUIayn8kQtEMZyn4mQ9AOZSj7 mQxBO5Sh7GcyBO1QhrKfyRC0QxnKfiYHxAw+/oV7gaIAABRWWRSibQGiT6hTVLpCMWEKYhCNhfn2 vDn1ZB+quV8aqR1+f8VEX28hBsR4+uEH4T1vOkOs8cgvH8HatWv96Ni4FIELs2XcRtO7OqlMV8jx FJIpq8dj85qNSLux86yZuVHG7ugZMzD31LlZvq1EQftvP1zGNEV5nT5ASdf7NtwuVl59CYOoth+I MebTO9X0moQMAgMvFhmhzLjH+/ZiwfEzVNA+vnYtlixZAhTktrbHBbvVJX2qrTA5e/qMY3ou9SgF tTjhSBNJoDx71AjwYuW1yjjHe/fuxXnnnjs40PYvUgMoBQI5iIGPz6YSgLk+CMzCUXugLFg971C8 PRJsOpCCzsTswGmSALm3F5gwESMT9OErigLFyIgOMAWoUnmwTgNfnp7ELB17E4MUg1SvQXlMTCAt MsaIk4bpFwIA9u7di0mTJqEYab4yTQCtdV6CI8SySexKbSRdah0NmBEAq2UQO1wEa8uBl/NhI88L hjGs2QeMHBidQ4qiwAR7YygMCihgDLCnqkupQ2Kj316MwnkoJad1nBhY3a6FA7iec2Vg7927FxMn TgwCP0USQZvIklEGFcAlAtSWcx8K6CQABtuS7JVyjaX9yopeGCCNQUV7ct7bB4xM6DswvUAsJdMW RRhcucyakCpHAdqCbVOZVVuDa6KVx1iV16vsid7q9u3bhwMnToTp9fp1W2RueUyrAlQoj7Fy9UXB GavPziXQSnFF25fa4W1JvpV2HInMqoanwgzERXnS2wdMOKBvHwEsAIyMjGBkZCQdhBkpdDLYFBZO BWYMfJqflM21JhJNjZXz559/Hgcc0IdarwPWTwdtkEVDAOXlCnt6rBjx77ShAFMCuQRIjYEbgTRF yABTN4bry/NerwQsAOxL2tAsiqIP2v5JHHypjAydPVNtvWlVSH1j6bAKWHY/0evtVMqx4gkS3S02 xvQZ9sAD0SsZtotY0jeiQiBKBqhQtzpMmQCk9rQ2A/F51xfSC2WiShsI7xmAbmNdUPCaHmHYfXVs JtQmUBQj4kaUBEhVhwjoYuvOhHVpDKiVjt0vGhg9NvbQ60uT9FgCKa/T6/UqwBZFUZUVfthZkgDa CXGWU0HKwc39CHoVoNw2EZypOjE++Ha8zVwJ7RY7rk1fXYyU6XC5UZW4h1GM9Jk2BawcoM5xhl3l m+i1b+2YgozGLNZx7gHdtycesGXxuloBsZQaG2NwwIQD0EtYyuRKGtOmArT6CoA0CaCRtrKAWAi6 SNxUtDWyONKSMsC0DoClDStT6gtST7geQUaKAiPl2MVAmgpQ0Vbwk5LuWsDVc6BQR+jrtPWw9QVX 2MTC9Y5Iz1uVMkMmXwOgKBW9Xq8/13acmsdBO2J3j6Wbm4MpUAYEQNoUoCEbFounU2JyDjW/Unmi FFVeBeegIOclTtHrkfICMFKMSjMjIxiZMMG9gkwmTQGopMsFKGXMtGe1BRtyPWX367pHpNgRH7PC SxXKixbGmD5gnTa6A27mI58MkCYBNLOec54YR2UaArAC6ui6tsFAaLvFvMz0UK9dWRgJKXLFtAgD lJY3YVERxBSkuQCt2i787g2l+V4dv35wV5mNL1+rOmXOG051DXveK/cexCylA/DGQeuBoUvRAJtY t/qK0Q4fPaFODmDVOLleSnlLm2q0CQq9Mlvu3b2CrpmEnqM28icANjWGoL20Dk0ErPgsVxx/cmpc BQWxs6lUDVl/HIuijsuUtm2eyUqSAFouIXbrSpreQArLBssFXXR9LJRp7TlCH+kUDLisXGN20+0N IInGso39CSwbbltgWVvG2BaefRiwKbvJUrkFsQWv9UvBa4EbaqAQYsqVBqANCQdbVzdYC7/BDhJu oiTAKj55W97CiIFTY90K0IVDxNH2BiwpqXFTXxFjkbl9gOuAjYE1mh7b6gJ4OXC9JgrpOpuPXceg VURcz3bAzllsH2JhidkTAZuR0qnM6rEue7xTYFQYtq00SY3ryoG1rNMGtWWthwDLhy0jPXYAXA1P IQKXXI68pu1ARge0QemanUPpLLOLgdjzkeKb6vlsrTCrLeNrWQ2sRaHELZnW/avf8IOTnNRYcRCY BCxQdXB4z3LdE1kPwJDHcZxdKety4PrbJ9339zgArSLebm+bSw8BVGnPa1OLIzIxVBJaz3Lg8pyY xtbdLZDyiuEgpGm77qTDger67lsogC3YOXdn3DILYAm8FLheMNI1dMC2iX/Ul3DTj5rQjm/Kzjkg pm1yncKC4tY+s09ZI49hf3e5fs1olXVLuC3LsvKmlQDYcggKy392SNxD94TbW1+8LSh9U8SvI1ea /SUuB8x4ADSPIaejgqm5BlhWXwKqqM9lcjkcPd7RkegLFF21028kKbUX31MmsTnHHKhVa4Wv53Vp G96Qh9L5bqT7H3ZT09oBjGhaQMokE6qSAGJrF2NUz6fgI0VGeae4lSiA7rCBIMuWJnXbIMce1gS6 JTpHBeVaCn+i8MIpCmeiazOcY/BrjKSDUtllYHHQtgMxJK13OVgFXTQlJjHtTyDNEH092+56gxNE 4err9ly6ldJmCl4OXB2og2XbcfYTqgqQRvMGzgKxYCcSLVE2SYnjDbwghK9nC/rdxJ8ALmeCIEDl jMzXsRy4QmNRtu1KxhloY0Knyox0t1WTqakynAEWydfzGW3ctX2Bsm+SeM9xM1PMQgas20SdwtbV wsw9ug/Q+rKfgTYk0s3N0vBOmpFSZfsfilLKrkKMKX6HkiTZa2fOvgys3jm5j8bD6LyAQJsiDMRd MJc4KQTSZ20J0Ln4rPFiEocJOctSOyeTCZSlNdpPqgtUmcEgxuBFBlpNulpLl+zqAXnAKXxMRvkt qHEthGVFwEa3DOq17VilyEPQJokGat2087S8CxmCVxZpQ6oa8szUexRkCNrWMkobYkMZNRnvU9sQ tI2E/mSMqXXGNxlvMk7DGnNxfvqUjGXbfw1gEDIErSjViCnngXoGBBms/hhKf34Z+zjGk1SAJD+H avjki7rMTtLOXD0G8iIFbVNQRvxVxwbeqHpAHrQYclO+yMFa4dCU/xdR6Q1bjGUN91ceG4OB9vkL HLT17Oied+SbuhYdG73NziaMoVhx0toQQFHr7W8Ue+XOLy02u28M4sBvIvsxaDkQnSlycO1JvqsZ 2rAP2GCnxMVYewhmT4xNUzPXnZRtSw/Ep3E+dR13PEzlYuzGZZyDVktjx6JtWkTjoZOF8OH+vPo5 ISmp9wtRjAUI+87uM4kpZeD6Ven9JlgabjM6Msag7Xpt2SSEnLY1No/ViWQBTUH8QhACxi6G3UuR 3ULKrWT1Iv/PzaBoNTldrturJ5pByOBBS29ImkKO2f0ppNMhW0AHqKcPUq3sRwPxCygtlh6hdLPW i6fI8mYRSZWpwhs6Yz2IaXEOy2pr5ybSAWgZCMYLa4iTRbQSqyv5Y75SAObZSPYJPhLMxkpqcKCK tctNGJ4ih/9BO5cUJODaLwe87ONMux7w3QDoxlb0Wky7rCIRtByY5HhMpQkwhfqpKWsIeBaY0sep I/lLbEOLfxSEM2S3jKk2mpRmqmyrANdNfaNEGwasCGAaVPwyc2Wcb0QRabsZ5YDaBOpHWFBNiWON a+ys+Y7FNAAxZFU2GqD02k1jINeWAcZUpdS41hEQOuAVUevbhQCr9pVJsMmQcQhazn4tLjLJh8S2 AZ3Ve50fGX0vJsEn9+WFbfVS+3GxDDAWwGyzrnXiFuvIYFeBa3UEvLHNqOqcBKUCVn1k1I2MPmhp 3kFnytY3DvMXDoDY0yJp5BWQ2bIkapCAFgIsizfpurSmu+rf1AZrkDntZzhwu0MeE4mZpTRZA24S 00pgRa2v26XH0hX5dm1kwKDtkDVFvwk+vQ0p5of7SFpnKuCNrmmF+iqQtZjHj3jr2wbB0kklVJtn CbSEpskacPk6lpepTMuDSARsf+ijV9RIWv4LAwb9v0czgCnQ/weTi37EgT8gv+mt52PerKPUcumv /f/viWfwD3cuw3vOPAlXv3au8Ps+/e9zP3tPHQeTN889Dm8+cyZeeeLhOHXWYZV++469ePjxLfjt 09ux6FebcMvDv4XZvQcnT3sJvv72hTy46vDs6++zSgDAQ9deol7TtxatwZdXP+Eqg8wbY33hfEDS /+cuCu/7yiv/FiecOFOss2TRYvx0xQoAwEc++hHV94b1G/DQsodw5duuFMvvvuv7WLd+fdXvC+bP x1nnnK36e/K3T+L7d9+NM+efgQVnLdTtfvck7rnnHrW8EsbQTpEIWOElkCiA8yQBtBow0fjvR+fN OgqvOeOYrDqHTpkE3AnMPGIqzjvt6Ky6Fxw/Dd/+xwtx7PSDxfIpBx+Is+cdhbNxFP7m4ln4MoDi bd/A9MkTcdarXprQQn9AznrlkarF0oc3EnOJfUNlEtN3C1gLRBgDU/6xfKVr7rT1T/pcevll+OpX v4Y9u3fDFEW3l53gS+N/FbDGUfQf71BmRnsAj8FGVLOHzK+Yc0ROE/Y/uGb+HCz6zBtUwCY4ChRn XkfyI6CG/lNCKP12vc5qJ3oMkyZNwsWve12Gp/QJLZYai8m4MQJg+206aTr8vjUNNxC5DO4f4Kpm WT9lft/Xf4KjvjsZN19zIV51cs1kH755EVZv2Az7KxDvvWAu3n75XMftp5c9ih8/+iRufu9rHCB/ 5EsPYtWGzXV7AN47fza+8uELnPrbduzBbfevxR3/sw4rtuzAwsOmYPaRU3D1hSfh7Hluyr544xZc 9PH7cPM7F+LUWS+p9Hf86Df48tI19XWWctEn7sfC4w7Dp6+ZX+keefwP+OC3VuKhLdtp5/h95Sp0 G2HJLYldU9F0tgvmoz5HS2afNAczH3mknyYnSHw9iSzGlv8KyHXEAcvHdJTT45go6XNA1mx6FmsK YOuOPY5+1YbNWLruqerGev0pfgq9c+sOPLB1B/7I6q7csBkPrN9UxXTQ1INx4/vPcWx+uXYLzrzx fvxp644qxkXbdmDR+k044YgpDLQGZtceLFq3yYtzwzPbsWidbau+1r7OHZxtz+0V9XUzwrrWMQ0w 8wClGlUOfCK3334bjpkxA1e/652O/oFFi/HTny7vz73G4HOf/RyuuOIKHD/zeMfu+uuuB9Dfw7jh +hsw4+gZ6tr2otdehFtv/Q6Wr1yB5atWYuH8M3HWue7a9nv/cSee2thfhqxctRqrVq/GG//qjTjm OPc++uLNX8zqCyoyWMm5qxyIZKbHxkk9m98/pmHd2G5cXX7Dxa/C1IMnOhYLbvhhCVjuS0iEDLch RWKKW37EKsqmkgpY5oezrOazoXjPTccsZdbbnXrIIThrwYLSTLejq0dj5DVpbpbqPgio7zO++eQB turObvszzrQGSeyZ4CQ9PSvtPnHvSnzi3lV9XWZa97ZLTnLOb/vhGuy0gK18ldkBgPsf/T1wa1ns hB1hyJy4xMHjgKT5rxH0mp/0GExRoCAbTvkuElPkKvnS+hDlbZG24XXa/DPw+ONP4Pcbn1I3iOz1 AUChTgL9htO7kae6rt6Qgmr02AToPoJqN4Qdr2lZipy7hgpdCV8jK82jMJhz1OEey97ywGOCr6oS Fq/bhMXrN/m+pX+JPRizsJYJgdU5DN1kUnvxkQ+lt9G6iKfIWpsGJutXDVPZ6JLLLsGtt34n0G45 SRQByBqg0CZjxZ5pyH9rA8Ps7VbW6DOtJJR9c5mYgI9fzJIb3+qZf+rry2u2TYxt+p9N9NQPPvWs EkdZybkWoL4ev8M/etU8fPSqeekx0eCEQ78NKR2WY+lKmm5aRe/HOpkRikz/X1cPNLN7925MmjSp Ordp8q7du0NN6uxuW45NxqJXdsTYsz6Xx7mr5UfCmtamaEJAKSJdSFMJ+SKqWUdO9Yqf37XHryet TaOs10SI73pJxE+YHSvLZNhwOPV7vLmect4bzvUuuXxwyYOe7rT5Z+CYY4+VYys/vGfduOx/0z/O 0JHsydGRNlN+e6qpDOA5LQd5W3dK9wdSzi3P7fJKDpg80bFx/HBA1CMht50rnr8QWHmMNL5mwG38 hwHSGq2JGL0+/UMCSZ5++mksW+oD97iXHac15QBLbNcYbyRiHwgTgtMOOU/pqTZ/SNB8TWvQIEW2 9kZMvT70hZ+Uz2lRlf/Meb4JtS4d+S07/dTp3OmHYbF9TCPF6qXLgJbX3X7/47jlgV+Ll7vgZUfg M+9boMam6lMY3gLaYjwCpJQRcewT167uRpQCCmuD+Nq2SpOVa1++YgVmz5mNlx6lv/pK2w6tZwF7 u9YWEydOwpFHHO7Y/P6pp7w6XjtU7+wa18fVS410AgxeQFwSQWvgPoNNuB0cUGtAc2X1hmewdN1G /9/B4RtQkfXKso1bPO1bTp+Jxes2Qptkrpk/ByccOQUA8JvN23HLqrXQunfD09uxaP1GiH0QHREJ qFLFCpnueVeSuotMypu+1hh6FZD6k4e1r7zv3vu858GKae0oNPGQ4yMOPwx//da3OOWf//xNPFi5 fuazI5rCN5W0NW1SQNQ2Ns8hELRhvvJjeX7Xbjy8ZrOju+rSk3HQIX9O2nf9XX3RyfjYO07Hx95x Oq6+8GS3VWmHuKrvfuQblNi4uRU9sY2VH6o27NLTB7y+j43zrdpn2/llJ51yimMzcdIkzDxB/sOC lL8QMsZg87PP4sElS4MxCRV1fQw8zIaPdBR4pm5/fOweA/DZN2DX5PFPk7rE7qYf/BxfvbZ+Z3Xq wROx4trL8OpP/gDP794Df7fY+L6AQLvl9adehnzitxdzQpk3UMfY8ki/2VQx9sy2yrEYOz6zebNn O/3o6Xj3u9+Fxx59DJMnT8bJJYiprF+3vjqeMmUKXj53Lg455BDP7tRT5+LYY47F8pUrsGLlSsw5 aY6aJhuY6pJnTD8axxx7DA491Pe5YP6ZzvnUqVPE6/WVsYnMftdvLnvvHwc9pEnGyxXIA2kF6pCN Vga/LnlUFGy/tPvaqjX4pzXznPeTXz77cDz7pavwqW+vxL//fH3/ZQtTYM60w3CI81yXMZ/UBrdT w4mktaGMQ2LhFpL7WCdmZ4zB7t278LPVq3HaGWc4ZdOmT8e06dNV3w//4heV3ylTpuC8C84X7V45 r/9obfnKFTDG4N5778M7lTS5Bg0w45gZOPvcc0Q7/vpj0FmC1KZ84rflxtlNHqUfdtOEpbJqIC5L /MvlC2Hu/mecP9/dtl9y4xUwd30I/3rZAlLNdfrJS+fDfO+DOO/0GY5+8XVvgrnz7512Fl73n9i6 3d2UmnrwRFz3gXPx3Feugrnj72DueD9+fdNb8PLZ7kYEAFwwcxrMd9+Hc149zdF/7B2nw9x+jX+V t1+DRZ/+S0d3zqunwdx+DT5z6Wl1bNF1jcT6xi1PGHSbxiXdH7Gd4kD50geX4U+7/B17TTZt3IhH Hn208ptyB9s2N2/eHEmTI5Nkh1KHXrfJW/Z/bK59bO3ePQ7ZOfa5ItykQN4FG4Od257DER+4FUt/ 9lTcXooh1l4SAJl9rE1vIuT90LRPeSi1/5A79VENYY1t27bhW9/4ZhJwN23ciNtuu73RZdg2l69Y ga1/3CpZDBSy/nC7YK0mSfshkXQZU9ofwcfS4iqFVv443ilPDV9Jk5Pq1bvMz+/eg9d89m6cf/x0 XPuGebj8PHlDxMqy/92Ib/73Y52PvO7OyEYGbl95GXnG7Zm6AxyzU9a+xhg888wzuPmmm/GKU0/F SaecjKNnzMDkyf03mXbt2o11TzyBNWvW4FclwxblvWIKYNv2bViy+IHKn+OfxWDj+v5dd2HWrFlO 2bbt26s++93vnhSf76ZKaCdbPAtMbvRV1i5gXOzcuTNY+6A3Xwf79639/5Sd6DyWKdzzqp+VcoAM RsHOJftQ/YAP0RaYM+1w8qpjv2zVH7Zj59bn4EohHiqKDJHXPi6ADWB6gNnX/+7R737ZwuNeip/c eJXYwn/96MdY9tBDgAUZARsFY3Us2NFyz04rz9GR+8W27cVFbVmXezbaZOS02Vw8oAhANcbA9Ax6 pod9+/ah1+uJn4ULFuD1f3FxozgaPKcF1OeTKtuG2JowMP/rG2pP/QO+veSDP9cty9ZsehZrvDvA O4ALIm7fgor90VeMjFLcLAm0PZLKtinloRcyqE6yq168qIa7HiebCju2dgyK2r9jw85pzNVh25/P UYsoh7rLpa5fZ2y+EeWsbYUAYmvf4K4s92HYuWRP1oDO7m7I3ginxi8D1xvvNOvjK/S4+LUxVUhM Wcd+izaRta343DbDVjr2bvAy2DrhUOqD/Koia5e3o7376y1Mcz7KNYugFK45gJYsyQCt7Sxtlqfl sfpWJVyGpPPajAA3pk8Cr9QulVao1X1RkypWFnOL0ec3k1geAWWKXgOuWJ4B3Mpe6EoJQBTAXbzk EPLn6JWm9D/VTJc4aEMNBEGqlKt1QhOBLefnUowJeq+M+Oenhp+0H3jPn+RaZFXXMOVhjgPCBLb1 6tJytxIL13i2UZYNAJfH67EpZV0FvNpk0eYT8ufoIdg78TeXFo98QiCTAMH10o2i6DoFLiuLgZeq VBBnfoJzAFUKhtK1C9InaAWklU0AjAKLeHUSGDkXuDT9reLIAW8AwINmWrV94buNpG1EGaO8OWMQ 32DiRbZOxL+jo3XsiNLzwOaU1QOsDIFyakPspKLORHGqzEU5QRigflWR9bW2keTU4f4kW6aPHdNN o9CmUz3Mctx1DKUPe88B8n5pB8B1HdLDmnQcUHfcZoONqAQ2FYuEWUlkxABLSoyr+iF2YplSHmRf kRobSsCn4WxLdeTaE1oQb5gYQyakydw2aNPkmNBtPcwy60rM67HvgIbNaY+YyHW7AXH6X/mIDWk3 UAKwqy/Nrz2MAFfy4wEvVMZ8cbvQdbf6cJdCexaojo5cb+rgk5Q3CFalToqtZtMWuBR8GnhtPXFd GQJxg4/n0+sKUw4NWw87cfl9liMNH/kIQI0BUAK2ZxMAmti2BNxAvSbgpbZdpjnUpxSH4f1GY0uJ w+ggLdtPAbBkm7K+bQtcjXXtVwy84qZRB/+ThLcp2lHwDpxpKRh5YxJQaGEU2JJNU+ByHanXGLwR ALf5+I6VNqWJKU8c4DVIfe1xFOQdADeVdW3sDngDAO5yLRvejGLXQ75peZtw8v+e1hj4fyJne5Fv ShlfZ5BgY/QNJeE3i51f1PB0PG7U9fuGdbkVdUOK2LeW2Khpk2FK3drK23hCfFPKdeJuRlU9beSN Js9esVPrC2WAu0kFoH47CmTIy/YrEd7QGog4kwubfNh3aFRTpcGvMUplrspTcp1nI7SRyriOP4mV UlkVvl2UEdt8JNesXaULyjtD9qH4VVk2J/UlNx636YJxs85pulp2qde70eymoTC/2qh6S42OYslk 2nKe5azVn77LE29OFnSQzys/mYzrPFqiNw9lXcBj1RDzVmrWwW3eXeUSGjxDJyAZ8KEnfvYG8R7Z SCwr2ZU+pMdAGjs3ZVwASawr2pM+kNiXSvi3kNPF8+LN+WR9S1LkriTzDwacyCJpslZfAlnB9E2A C4jpsgjohs9naZ2BiDdX++0Z+x+jErbklT9zlXSVvQSwsr9FXw2BC8hglcrouapTANxXJHdXXARH oQnUy1BaNp+3e1zdMEKBkc5NwIYWs8vhdUOpclK6THIn0DLmR02dtQSorUR883hpv6hjwaoH0lxu 5/SkNDk1SIFp+mjLukqRqW40HvfUwxDeVaaPefTHPc3vpbx/CZ6nuZztGm06AcmMCxB2h1sWZF16 Oc6uheuHtlO1JfXHgMSbgMjg0okoY9D73dgsTbbsp7JnBuNWLK3YAuEUmZdbkey4vt8PAxw31jZR +uemfSQN3z1mgTAT+WbjPgyrQw84szBW9CtWHeKVVdW96VIpY9c2iI2MFP/KZboh6jHVM7qvk2b+ eggyH+1kMC6PWNyoIccaq8Z0VN/1455U/15/0YyjZUwN/qlLiS0N1PWttgnlMSkY49K2mF5i1liZ 459KwVwYt8zpi8HO1mUj9XcFZnlSSQonxKghlkXGo50cxgU8W0BfvyavZwMsy8sHIdJkJT7D7SCO NKb12FLR2QKHOfk5+Y4yruTPHvK2Y6wbYlehXLTpWgIxSP2t9WPAu3OcyrKMFZMe7UQYN7TOlWxa rWcZC44J05JvyrJdRJKxptV05TFnOGcHWWJMWw/pjAtuW3ZB8l/vMOat/EkibDe2+YkZTTyXhukV YKcMfxuWdcbTZcwcxgWUtWrpn99dg1jP8vJBicOwtj3hu20kiWta6UYx/n3D2c2pIzEmvUGNU5Ud CLbuzO3Fy+OSmDeFfUNM3MUntU1+fbGRpyxVnnu9GWPZjPWqYXVS66Wwbo6O6gfFslIbahzk2wFu i7jyXq7oT8FIW99K5fa8coYajAVhMs6Ews6wtM4FdNYVbahd6dfKIFhVFD7BhMrp5BOPrz9cRmVZ W66xrFgeWq+SOjm7xXStC1bHsYvorEg/MDcaIq5lGcOKc3CmZPzcjCFf0o0mBCqWU5bgN6Sgd9iI 2UplKqsiYMNtjXPoxtXxR2vHidE4X851RMTO8LxHwG4sqpOOnfoh5qT1hXpqXVY/VI/qxoppY+0Y du2kIGncQtLsNUbnuPzuT7GAx7hSuYHIlpq+OuTtQ/GDumNSmNexo9flBq8tAAAGWElEQVRKT/11 UjcSG0A7mYno1msZkDHoHwdZVimPPcPlx5Q1qV8gj3VtDLyelfG2nqXt1HOv/6jHlreJKXH3WGA5 10A+DrI09SP4N0wv6UR7YfYWmVexS2Hh4KepPYuFMjHtK0NtEiSVZYVyQ8qNZMtYM7TOpaFL9lJ9 jXmp/VjsHGttObHTmEnW0UU06UxLZ92KERnzBZ+plrr+FI4o4zq2IP4EHWVdSOVwZnCiJMdshuaD Lb4dJUnmsIRuKiOdSJNmvI2mLCsdU+ZM3iEmDGzrQqlPz2n/8Lr15dU2TZk2tEbOEb6D7DHt6KTH EgBLfSPgAu6mExjYUjadQOwh1xHL4XZYKoB5PU34DdN4cOzAGkGHSh++uQxfMIRT3kzgxjaaQuly k0c93JeVEIArm4QJtwlQtTqqnnzaSP4bUQ5whfIocCUbQGVWawuhrHIv3Z4Q6sG1E9mXxkQlgWnb gDRYJrFr2vDXXRRhWXrcEXABlzErpkxkXU0nsa8VaZRymTa1jiRG+hYYdhTWtDQMeDO+V+7cZFI9 yYbfnMzWURm3yDgH8AqdIsEuup5lMaqfAdTzrs/GqVTj10VbENaq0I6ZrXocWOd653xtp6z1snaL 2dil9KwkTdbB4kja+vSblY9ueuwxGtH1p194DJnCuKB1JZ31AQRZV9JLdR07bgu5U5PWtA0HQ2pP mowMN4hHw99scvq/DeMCWW9C0XMvRY4wr1M3oK9809OEcRPZOVpLbo/Xd4BKAdwCuA3+CN6ClIGv DXClDapQulyV2XNSngJeIABgXsfaRzpZuzm6SpmtHyOUic3WjOj9aV4MrPSYAjQEVpr+khjUX6GQ gKqAl15PKI0V164J/a8Cu+E612FcMNYfHaatWmsHXDB9sC5tVgC9x7q8vDbRGVUDMCvz6inSaiC0 ukb4pnFH2tRYlZ93cAzo61wgwrrIB6/jQyjTbERpMXYiYwpLAm+p0kISNqIYuJoCV9J7dSEAnIMe 0MErsKujktiX6okvKkmvNIZujhi4FKVh39Q+hUHAWHYAwAX01BnoFrzUH/VRlXXwuCe3rlgPhHHB pl62B9BEGvxbPhS4SnkucIF01gUywEtsHJXGvtyQtRuSELCTRolfa/kf79v4thGvgwAuEAGrwLr9 6pFHOxJQCXjGy+OeYN1qKWNcoJLvNtLdyxWNgItAffisLq5nhZQ3+pMypErKejYFJEFgtxkkIx6m xUT6tAVwgRr49ji0KZXLuqJOA6qip/7dLgj3UwzUjdlWAyxqJm4q3b5cEV2nWuBBACRk1o3+1pMA Sg5er74CYKkdz7cmbZMeqX7JqhW7ugCODXyQZRXgAhGARnaQAQGsbcBb+i6VbL4lZ6yMthOStq85 iqMWYNrR2YjibKkCF30bB3gBgGobVFIb1kdlS+NLAC+183ywoRUxG+vk2O2RwoqCwmh6Omcr7sjG Rw5wk16qQBysHuuycwDNwdsv0AFszRNS4w5GTgRhNXQcwKk+A5K4pkUCcCvDdJtYugwozG3PaYyB 9WxVH7WPyiRhfo5iNmLQZJSM/Q9BrjHEV8pE4IKtNXARACsDZ4x1tfVuv8gHL9dzoEgATflx8iiw U3wE6jkj2MEmFNDm5YqmwAUYs0pMmsq6RFfZS4yqsK8HYMFfSpLVxUh4TihYaTkDcsRj9I8E+HF5 ng3WWEocOQd85gUSAWxj5tcfAWTF/gFpw7ROKky/W4I3EbRozqZJ69xImci6CIOXAjLlWS3157hJ 6d4O1rxSsQGq9axYrvvk6XEqcAH3Zm4DVjEljjBv1T67jr6JDGBeltI/NIawUT68+OuL9Dhtug1L +htRQHM21dhSTJfBfADJ4HXq0PAT17NSd8Ye94gThiBRkwDT0nMnRY65ZOBiwIVw7KWtOWCNpMjB VxcJOJr8CV6jxz0tN4RCbVOmNbWh+2koUdBee9l51bHbCSStcfqGAsRPfYQKovgdLqxZ/EqaN6WN aBhq3cEIuXENYEwPxvT6A199etVMfuy0Q1VPJ86aVR3TvtRuZG1s+2XyiTdCkTHzi6UxTevv+NiN zbgBQM8YmF49VsYY9Ho95/vE2bMbt1bs3Lmzm+lmKEMZyqhI5j8LMpShDGWsZQjaoQxlP5MhaIcy lP1MhqAdylD2MxmCdihD2c/k/wFz708AFzdoVAAAAABJRU5ErkJggg== "
       style="image-rendering:optimizeSpeed"
       preserveAspectRatio="none"
       height="53.784805"
       width="106.22499" /><flowRoot
       xml:space="preserve"
       id="flowRoot4621"
       style="font-style:normal;font-variant:normal;font-weight:normal;font-stretch:normal;font-size:80px;line-height:125%;font-family:'Liberation Sans';-inkscape-font-specification:'Liberation Sans';letter-spacing:0px;word-spacing:0px;fill:#000000;fill-opacity:1;stroke:none;stroke-width:1px;stroke-linecap:butt;stroke-linejoin:miter;stroke-opacity:1"
       transform="scale(0.93749996)"><flowRegion
         id="flowRegion4623"><rect
           id="rect4625"
           width="191.45898"
           height="124.73843"
           x="286.22153"
           y="568.28107" /></flowRegion><flowPara
         id="flowPara4627">Proyectos de Administración del Estado con Software Libred</flowPara></flowRoot><text
       xml:space="preserve"
       style="font-size:75px;font-style:normal;font-variant:normal;font-weight:normal;font-stretch:normal;line-height:9.375px;letter-spacing:0px;word-spacing:0px;fill:#000000;fill-opacity:1;stroke:none;font-family:Liberation Sans;-inkscape-font-specification:Liberation Sans"
       x="117.91942"
       y="503.07364"
       id="text4631"><tspan
         sodipodi:role="line"
         x="117.91942"
         y="503.07364"
         style="font-size:20px;font-style:normal;font-variant:normal;font-weight:bold;font-stretch:normal;line-height:9.375px;fill:#ffffff;font-family:Liberation Sans;-inkscape-font-specification:Liberation Sans Bold"
         id="tspan4637">Redes</tspan></text>
</g></svg>